^C:\USERS\MANOS\DESKTOP\COMPUTER-GRAPHICS\086 DEPTH OF FIELD\MAIN.CPP
C:\USERS\MANOS\DESKTOP\COMPUTER-GRAPHICS\086 DEPTH OF FIELD\DEBUG\VC120.PDB
C:\USERS\MANOS\DESKTOP\COMPUTER-GRAPHICS\086 DEPTH OF FIELD\DEBUG\VC120.IDB
C:\USERS\MANOS\DESKTOP\COMPUTER-GRAPHICS\086 DEPTH OF FIELD\DEBUG\MAIN.OBJ
