^C:\USERS\40168970\DOWNLOADS\COMPUTERGRAPHICSSET08116\COMPUTER GRAPHICS\001 GETTING STARTED\DEBUG\MAIN.OBJ|C:\USERS\40168970\DOWNLOADS\COMPUTERGRAPHICSSET08116\COMPUTER GRAPHICS\DEBUG\LIBENUGRAPHICS.LIB
C:\USERS\40168970\DOWNLOADS\COMPUTERGRAPHICSSET08116\COMPUTER GRAPHICS\DEBUG\001 GETTING STARTED.ILK
C:\USERS\40168970\DOWNLOADS\COMPUTERGRAPHICSSET08116\COMPUTER GRAPHICS\DEBUG\001 GETTING STARTED.EXE
C:\USERS\40168970\DOWNLOADS\COMPUTERGRAPHICSSET08116\COMPUTER GRAPHICS\DEBUG\001 GETTING STARTED.PDB
