^C:\USERS\40168970\DOWNLOADS\COMPUTERGRAPHICSSET08116\COMPUTER GRAPHICS\006 RENDERING A QUAD 4\MAIN.CPP
/c /ZI /nologo /W3 /WX- /sdl /Od /Oy- /D WIN32 /D _DEBUG /D _CONSOLE /D _LIB /D _UNICODE /D UNICODE /Gm /EHsc /RTC1 /MDd /GS /fp:precise /Zc:wchar_t /Zc:forScope /Fo"DEBUG\\" /Fd"DEBUG\VC120.PDB" /Gd /TP /analyze- C:\USERS\40168970\DOWNLOADS\COMPUTERGRAPHICSSET08116\COMPUTER GRAPHICS\006 RENDERING A QUAD 4\MAIN.CPP
^C:\USERS\MANOS\DESKTOP\COMPUTER-GRAPHICS\006 RENDERING A QUAD 4\MAIN.CPP
/c /ZI /nologo /W3 /WX- /sdl /Od /Oy- /D WIN32 /D _DEBUG /D _CONSOLE /D _LIB /D _UNICODE /D UNICODE /Gm /EHsc /RTC1 /MDd /GS /fp:precise /Zc:wchar_t /Zc:forScope /Fo"DEBUG\\" /Fd"DEBUG\VC120.PDB" /Gd /TP /analyze- C:\USERS\MANOS\DESKTOP\COMPUTER-GRAPHICS\006 RENDERING A QUAD 4\MAIN.CPP
