^C:\USERS\MANOS\DESKTOP\COMPUTER-GRAPHICS\015 SCALE AND ROTATE\DEBUG\MAIN.OBJ|C:\USERS\MANOS\DESKTOP\COMPUTER-GRAPHICS\DEBUG\LIBENUGRAPHICS.LIB
C:\USERS\MANOS\DESKTOP\COMPUTER-GRAPHICS\DEBUG\015 SCALE AND ROTATE.ILK
C:\USERS\MANOS\DESKTOP\COMPUTER-GRAPHICS\DEBUG\015 SCALE AND ROTATE.EXE
C:\USERS\MANOS\DESKTOP\COMPUTER-GRAPHICS\DEBUG\015 SCALE AND ROTATE.PDB
