^C:\USERS\40168970\DOCUMENTS\COMPUTER-GRAPHICS\054 DIFFUSE LIGHTING 1\MAIN.CPP
C:\USERS\40168970\DOCUMENTS\COMPUTER-GRAPHICS\054 DIFFUSE LIGHTING 1\DEBUG\VC120.PDB
C:\USERS\40168970\DOCUMENTS\COMPUTER-GRAPHICS\054 DIFFUSE LIGHTING 1\DEBUG\VC120.IDB
C:\USERS\40168970\DOCUMENTS\COMPUTER-GRAPHICS\054 DIFFUSE LIGHTING 1\DEBUG\MAIN.OBJ
