^C:\USERS\MANOS\DESKTOP\COMPUTER-GRAPHICS\022 INDEXED CUBE\DEBUG\MAIN.OBJ|C:\USERS\MANOS\DESKTOP\COMPUTER-GRAPHICS\DEBUG\LIBENUGRAPHICS.LIB
C:\USERS\MANOS\DESKTOP\COMPUTER-GRAPHICS\DEBUG\022 INDEXED CUBE.ILK
C:\USERS\MANOS\DESKTOP\COMPUTER-GRAPHICS\DEBUG\022 INDEXED CUBE.EXE
C:\USERS\MANOS\DESKTOP\COMPUTER-GRAPHICS\DEBUG\022 INDEXED CUBE.PDB
