^C:\USERS\MANOS\DESKTOP\COMPUTER-GRAPHICS\012 USING GLM\MAIN.CPP
C:\PROGRAM FILES (X86)\MICROSOFT VISUAL STUDIO 12.0\VC\BIN\1033\CLUI.DLL
C:\WINDOWS\GLOBALIZATION\SORTING\SORTDEFAULT.NLS
C:\PROGRAM FILES (X86)\MICROSOFT VISUAL STUDIO 12.0\VC\BIN\MSPDBSRV.EXE
C:\WINDOWS\SYSTEM32\TZRES.DLL
C:\PROGRAM FILES (X86)\MICROSOFT VISUAL STUDIO 12.0\VC\INCLUDE\IOSTREAM
C:\PROGRAM FILES (X86)\MICROSOFT VISUAL STUDIO 12.0\VC\INCLUDE\ISTREAM
C:\PROGRAM FILES (X86)\MICROSOFT VISUAL STUDIO 12.0\VC\INCLUDE\OSTREAM
C:\PROGRAM FILES (X86)\MICROSOFT VISUAL STUDIO 12.0\VC\INCLUDE\IOS
C:\PROGRAM FILES (X86)\MICROSOFT VISUAL STUDIO 12.0\VC\INCLUDE\XLOCNUM
C:\PROGRAM FILES (X86)\MICROSOFT VISUAL STUDIO 12.0\VC\INCLUDE\CLIMITS
C:\PROGRAM FILES (X86)\MICROSOFT VISUAL STUDIO 12.0\VC\INCLUDE\YVALS.H
C:\PROGRAM FILES (X86)\MICROSOFT VISUAL STUDIO 12.0\VC\INCLUDE\XKEYCHECK.H
C:\PROGRAM FILES (X86)\MICROSOFT VISUAL STUDIO 12.0\VC\INCLUDE\CRTDEFS.H
C:\PROGRAM FILES (X86)\MICROSOFT VISUAL STUDIO 12.0\VC\INCLUDE\SAL.H
C:\PROGRAM FILES (X86)\MICROSOFT VISUAL STUDIO 12.0\VC\INCLUDE\CONCURRENCYSAL.H
C:\PROGRAM FILES (X86)\MICROSOFT VISUAL STUDIO 12.0\VC\INCLUDE\VADEFS.H
C:\PROGRAM FILES (X86)\MICROSOFT VISUAL STUDIO 12.0\VC\INCLUDE\USE_ANSI.H
C:\PROGRAM FILES (X86)\MICROSOFT VISUAL STUDIO 12.0\VC\INCLUDE\LIMITS.H
C:\PROGRAM FILES (X86)\MICROSOFT VISUAL STUDIO 12.0\VC\INCLUDE\CMATH
C:\PROGRAM FILES (X86)\MICROSOFT VISUAL STUDIO 12.0\VC\INCLUDE\MATH.H
C:\PROGRAM FILES (X86)\MICROSOFT VISUAL STUDIO 12.0\VC\INCLUDE\XTGMATH.H
C:\PROGRAM FILES (X86)\MICROSOFT VISUAL STUDIO 12.0\VC\INCLUDE\XTR1COMMON
C:\PROGRAM FILES (X86)\MICROSOFT VISUAL STUDIO 12.0\VC\INCLUDE\CSTDIO
C:\PROGRAM FILES (X86)\MICROSOFT VISUAL STUDIO 12.0\VC\INCLUDE\STDIO.H
C:\PROGRAM FILES (X86)\MICROSOFT VISUAL STUDIO 12.0\VC\INCLUDE\SWPRINTF.INL
C:\PROGRAM FILES (X86)\MICROSOFT VISUAL STUDIO 12.0\VC\INCLUDE\CSTDLIB
C:\PROGRAM FILES (X86)\MICROSOFT VISUAL STUDIO 12.0\VC\INCLUDE\STDLIB.H
C:\PROGRAM FILES (X86)\MICROSOFT VISUAL STUDIO 12.0\VC\INCLUDE\STREAMBUF
C:\PROGRAM FILES (X86)\MICROSOFT VISUAL STUDIO 12.0\VC\INCLUDE\XIOSBASE
C:\PROGRAM FILES (X86)\MICROSOFT VISUAL STUDIO 12.0\VC\INCLUDE\XLOCALE
C:\PROGRAM FILES (X86)\MICROSOFT VISUAL STUDIO 12.0\VC\INCLUDE\CSTRING
C:\PROGRAM FILES (X86)\MICROSOFT VISUAL STUDIO 12.0\VC\INCLUDE\STRING.H
C:\PROGRAM FILES (X86)\MICROSOFT VISUAL STUDIO 12.0\VC\INCLUDE\STDEXCEPT
C:\PROGRAM FILES (X86)\MICROSOFT VISUAL STUDIO 12.0\VC\INCLUDE\EXCEPTION
C:\PROGRAM FILES (X86)\MICROSOFT VISUAL STUDIO 12.0\VC\INCLUDE\XSTDDEF
C:\PROGRAM FILES (X86)\MICROSOFT VISUAL STUDIO 12.0\VC\INCLUDE\CSTDDEF
C:\PROGRAM FILES (X86)\MICROSOFT VISUAL STUDIO 12.0\VC\INCLUDE\STDDEF.H
C:\PROGRAM FILES (X86)\MICROSOFT VISUAL STUDIO 12.0\VC\INCLUDE\INITIALIZER_LIST
C:\PROGRAM FILES (X86)\MICROSOFT VISUAL STUDIO 12.0\VC\INCLUDE\EH.H
C:\PROGRAM FILES (X86)\MICROSOFT VISUAL STUDIO 12.0\VC\INCLUDE\MALLOC.H
C:\PROGRAM FILES (X86)\MICROSOFT VISUAL STUDIO 12.0\VC\INCLUDE\XSTRING
C:\PROGRAM FILES (X86)\MICROSOFT VISUAL STUDIO 12.0\VC\INCLUDE\XMEMORY0
C:\PROGRAM FILES (X86)\MICROSOFT VISUAL STUDIO 12.0\VC\INCLUDE\LIMITS
C:\PROGRAM FILES (X86)\MICROSOFT VISUAL STUDIO 12.0\VC\INCLUDE\YMATH.H
C:\PROGRAM FILES (X86)\MICROSOFT VISUAL STUDIO 12.0\VC\INCLUDE\CFLOAT
C:\PROGRAM FILES (X86)\MICROSOFT VISUAL STUDIO 12.0\VC\INCLUDE\FLOAT.H
C:\PROGRAM FILES (X86)\MICROSOFT VISUAL STUDIO 12.0\VC\INCLUDE\CRTWRN.H
C:\PROGRAM FILES (X86)\MICROSOFT VISUAL STUDIO 12.0\VC\INCLUDE\CWCHAR
C:\PROGRAM FILES (X86)\MICROSOFT VISUAL STUDIO 12.0\VC\INCLUDE\WCHAR.H
C:\PROGRAM FILES (X86)\MICROSOFT VISUAL STUDIO 12.0\VC\INCLUDE\WTIME.INL
C:\PROGRAM FILES (X86)\MICROSOFT VISUAL STUDIO 12.0\VC\INCLUDE\NEW
C:\PROGRAM FILES (X86)\MICROSOFT VISUAL STUDIO 12.0\VC\INCLUDE\XUTILITY
C:\PROGRAM FILES (X86)\MICROSOFT VISUAL STUDIO 12.0\VC\INCLUDE\UTILITY
C:\PROGRAM FILES (X86)\MICROSOFT VISUAL STUDIO 12.0\VC\INCLUDE\IOSFWD
C:\PROGRAM FILES (X86)\MICROSOFT VISUAL STUDIO 12.0\VC\INCLUDE\CRTDBG.H
C:\PROGRAM FILES (X86)\MICROSOFT VISUAL STUDIO 12.0\VC\INCLUDE\TYPE_TRAITS
C:\PROGRAM FILES (X86)\MICROSOFT VISUAL STUDIO 12.0\VC\INCLUDE\XREFWRAP
C:\PROGRAM FILES (X86)\MICROSOFT VISUAL STUDIO 12.0\VC\INCLUDE\XATOMIC0.H
C:\PROGRAM FILES (X86)\MICROSOFT VISUAL STUDIO 12.0\VC\INCLUDE\INTRIN.H
C:\PROGRAM FILES (X86)\MICROSOFT VISUAL STUDIO 12.0\VC\INCLUDE\SETJMP.H
C:\PROGRAM FILES (X86)\MICROSOFT VISUAL STUDIO 12.0\VC\INCLUDE\IMMINTRIN.H
C:\PROGRAM FILES (X86)\MICROSOFT VISUAL STUDIO 12.0\VC\INCLUDE\WMMINTRIN.H
C:\PROGRAM FILES (X86)\MICROSOFT VISUAL STUDIO 12.0\VC\INCLUDE\NMMINTRIN.H
C:\PROGRAM FILES (X86)\MICROSOFT VISUAL STUDIO 12.0\VC\INCLUDE\SMMINTRIN.H
C:\PROGRAM FILES (X86)\MICROSOFT VISUAL STUDIO 12.0\VC\INCLUDE\TMMINTRIN.H
C:\PROGRAM FILES (X86)\MICROSOFT VISUAL STUDIO 12.0\VC\INCLUDE\PMMINTRIN.H
C:\PROGRAM FILES (X86)\MICROSOFT VISUAL STUDIO 12.0\VC\INCLUDE\EMMINTRIN.H
C:\PROGRAM FILES (X86)\MICROSOFT VISUAL STUDIO 12.0\VC\INCLUDE\XMMINTRIN.H
C:\PROGRAM FILES (X86)\MICROSOFT VISUAL STUDIO 12.0\VC\INCLUDE\MMINTRIN.H
C:\PROGRAM FILES (X86)\MICROSOFT VISUAL STUDIO 12.0\VC\INCLUDE\AMMINTRIN.H
C:\PROGRAM FILES (X86)\MICROSOFT VISUAL STUDIO 12.0\VC\INCLUDE\MM3DNOW.H
C:\PROGRAM FILES (X86)\MICROSOFT VISUAL STUDIO 12.0\VC\INCLUDE\TYPEINFO
C:\PROGRAM FILES (X86)\MICROSOFT VISUAL STUDIO 12.0\VC\INCLUDE\XLOCINFO
C:\PROGRAM FILES (X86)\MICROSOFT VISUAL STUDIO 12.0\VC\INCLUDE\XLOCINFO.H
C:\PROGRAM FILES (X86)\MICROSOFT VISUAL STUDIO 12.0\VC\INCLUDE\CTYPE.H
C:\PROGRAM FILES (X86)\MICROSOFT VISUAL STUDIO 12.0\VC\INCLUDE\LOCALE.H
C:\PROGRAM FILES (X86)\MICROSOFT VISUAL STUDIO 12.0\VC\INCLUDE\XDEBUG
C:\PROGRAM FILES (X86)\MICROSOFT VISUAL STUDIO 12.0\VC\INCLUDE\XMEMORY
C:\PROGRAM FILES (X86)\MICROSOFT VISUAL STUDIO 12.0\VC\INCLUDE\XFACET
C:\PROGRAM FILES (X86)\MICROSOFT VISUAL STUDIO 12.0\VC\INCLUDE\SYSTEM_ERROR
C:\PROGRAM FILES (X86)\MICROSOFT VISUAL STUDIO 12.0\VC\INCLUDE\CERRNO
C:\PROGRAM FILES (X86)\MICROSOFT VISUAL STUDIO 12.0\VC\INCLUDE\ERRNO.H
C:\PROGRAM FILES (X86)\MICROSOFT VISUAL STUDIO 12.0\VC\INCLUDE\SHARE.H
C:\USERS\MANOS\DESKTOP\COMPUTER-GRAPHICS\INCLUDE\GLM\GLM.HPP
C:\USERS\MANOS\DESKTOP\COMPUTER-GRAPHICS\INCLUDE\GLM\DETAIL\_FIXES.HPP
C:\PROGRAM FILES (X86)\MICROSOFT VISUAL STUDIO 12.0\VC\INCLUDE\CASSERT
C:\PROGRAM FILES (X86)\MICROSOFT VISUAL STUDIO 12.0\VC\INCLUDE\ASSERT.H
C:\USERS\MANOS\DESKTOP\COMPUTER-GRAPHICS\INCLUDE\GLM\FWD.HPP
C:\USERS\MANOS\DESKTOP\COMPUTER-GRAPHICS\INCLUDE\GLM\DETAIL\TYPE_INT.HPP
C:\USERS\MANOS\DESKTOP\COMPUTER-GRAPHICS\INCLUDE\GLM\DETAIL\SETUP.HPP
C:\PROGRAM FILES (X86)\MICROSOFT VISUAL STUDIO 12.0\VC\INCLUDE\CSTDINT
C:\PROGRAM FILES (X86)\MICROSOFT VISUAL STUDIO 12.0\VC\INCLUDE\STDINT.H
C:\USERS\MANOS\DESKTOP\COMPUTER-GRAPHICS\INCLUDE\GLM\DETAIL\TYPE_FLOAT.HPP
C:\USERS\MANOS\DESKTOP\COMPUTER-GRAPHICS\INCLUDE\GLM\DETAIL\TYPE_VEC.HPP
C:\USERS\MANOS\DESKTOP\COMPUTER-GRAPHICS\INCLUDE\GLM\DETAIL\PRECISION.HPP
C:\USERS\MANOS\DESKTOP\COMPUTER-GRAPHICS\INCLUDE\GLM\DETAIL\TYPE_MAT.HPP
C:\USERS\MANOS\DESKTOP\COMPUTER-GRAPHICS\INCLUDE\GLM\VEC2.HPP
C:\USERS\MANOS\DESKTOP\COMPUTER-GRAPHICS\INCLUDE\GLM\DETAIL\TYPE_VEC2.HPP
C:\USERS\MANOS\DESKTOP\COMPUTER-GRAPHICS\INCLUDE\GLM\DETAIL\TYPE_VEC2.INL
C:\USERS\MANOS\DESKTOP\COMPUTER-GRAPHICS\INCLUDE\GLM\VEC3.HPP
C:\USERS\MANOS\DESKTOP\COMPUTER-GRAPHICS\INCLUDE\GLM\DETAIL\TYPE_VEC3.HPP
C:\USERS\MANOS\DESKTOP\COMPUTER-GRAPHICS\INCLUDE\GLM\DETAIL\TYPE_VEC3.INL
C:\USERS\MANOS\DESKTOP\COMPUTER-GRAPHICS\INCLUDE\GLM\VEC4.HPP
C:\USERS\MANOS\DESKTOP\COMPUTER-GRAPHICS\INCLUDE\GLM\DETAIL\TYPE_VEC4.HPP
C:\USERS\MANOS\DESKTOP\COMPUTER-GRAPHICS\INCLUDE\GLM\DETAIL\TYPE_VEC4.INL
C:\USERS\MANOS\DESKTOP\COMPUTER-GRAPHICS\INCLUDE\GLM\MAT2X2.HPP
C:\USERS\MANOS\DESKTOP\COMPUTER-GRAPHICS\INCLUDE\GLM\DETAIL\TYPE_MAT2X2.HPP
C:\USERS\MANOS\DESKTOP\COMPUTER-GRAPHICS\INCLUDE\GLM\DETAIL\TYPE_MAT2X2.INL
C:\USERS\MANOS\DESKTOP\COMPUTER-GRAPHICS\INCLUDE\GLM\MAT2X3.HPP
C:\USERS\MANOS\DESKTOP\COMPUTER-GRAPHICS\INCLUDE\GLM\DETAIL\TYPE_MAT2X3.HPP
C:\USERS\MANOS\DESKTOP\COMPUTER-GRAPHICS\INCLUDE\GLM\DETAIL\TYPE_MAT2X3.INL
C:\USERS\MANOS\DESKTOP\COMPUTER-GRAPHICS\INCLUDE\GLM\MAT2X4.HPP
C:\USERS\MANOS\DESKTOP\COMPUTER-GRAPHICS\INCLUDE\GLM\DETAIL\TYPE_MAT2X4.HPP
C:\USERS\MANOS\DESKTOP\COMPUTER-GRAPHICS\INCLUDE\GLM\DETAIL\TYPE_MAT2X4.INL
C:\USERS\MANOS\DESKTOP\COMPUTER-GRAPHICS\INCLUDE\GLM\MAT3X2.HPP
C:\USERS\MANOS\DESKTOP\COMPUTER-GRAPHICS\INCLUDE\GLM\DETAIL\TYPE_MAT3X2.HPP
C:\USERS\MANOS\DESKTOP\COMPUTER-GRAPHICS\INCLUDE\GLM\DETAIL\TYPE_MAT3X2.INL
C:\USERS\MANOS\DESKTOP\COMPUTER-GRAPHICS\INCLUDE\GLM\MAT3X3.HPP
C:\USERS\MANOS\DESKTOP\COMPUTER-GRAPHICS\INCLUDE\GLM\DETAIL\TYPE_MAT3X3.HPP
C:\USERS\MANOS\DESKTOP\COMPUTER-GRAPHICS\INCLUDE\GLM\DETAIL\TYPE_MAT3X3.INL
C:\USERS\MANOS\DESKTOP\COMPUTER-GRAPHICS\INCLUDE\GLM\MAT3X4.HPP
C:\USERS\MANOS\DESKTOP\COMPUTER-GRAPHICS\INCLUDE\GLM\DETAIL\TYPE_MAT3X4.HPP
C:\USERS\MANOS\DESKTOP\COMPUTER-GRAPHICS\INCLUDE\GLM\DETAIL\TYPE_MAT3X4.INL
C:\USERS\MANOS\DESKTOP\COMPUTER-GRAPHICS\INCLUDE\GLM\MAT4X2.HPP
C:\USERS\MANOS\DESKTOP\COMPUTER-GRAPHICS\INCLUDE\GLM\DETAIL\TYPE_MAT4X2.HPP
C:\USERS\MANOS\DESKTOP\COMPUTER-GRAPHICS\INCLUDE\GLM\DETAIL\TYPE_MAT4X2.INL
C:\USERS\MANOS\DESKTOP\COMPUTER-GRAPHICS\INCLUDE\GLM\MAT4X3.HPP
C:\USERS\MANOS\DESKTOP\COMPUTER-GRAPHICS\INCLUDE\GLM\DETAIL\TYPE_MAT4X3.HPP
C:\USERS\MANOS\DESKTOP\COMPUTER-GRAPHICS\INCLUDE\GLM\DETAIL\TYPE_MAT4X3.INL
C:\USERS\MANOS\DESKTOP\COMPUTER-GRAPHICS\INCLUDE\GLM\MAT4X4.HPP
C:\USERS\MANOS\DESKTOP\COMPUTER-GRAPHICS\INCLUDE\GLM\DETAIL\TYPE_MAT4X4.HPP
C:\USERS\MANOS\DESKTOP\COMPUTER-GRAPHICS\INCLUDE\GLM\DETAIL\TYPE_MAT4X4.INL
C:\USERS\MANOS\DESKTOP\COMPUTER-GRAPHICS\INCLUDE\GLM\TRIGONOMETRIC.HPP
C:\USERS\MANOS\DESKTOP\COMPUTER-GRAPHICS\INCLUDE\GLM\DETAIL\FUNC_TRIGONOMETRIC.HPP
C:\USERS\MANOS\DESKTOP\COMPUTER-GRAPHICS\INCLUDE\GLM\DETAIL\FUNC_TRIGONOMETRIC.INL
C:\USERS\MANOS\DESKTOP\COMPUTER-GRAPHICS\INCLUDE\GLM\DETAIL\_VECTORIZE.HPP
C:\USERS\MANOS\DESKTOP\COMPUTER-GRAPHICS\INCLUDE\GLM\EXPONENTIAL.HPP
C:\USERS\MANOS\DESKTOP\COMPUTER-GRAPHICS\INCLUDE\GLM\DETAIL\FUNC_EXPONENTIAL.HPP
C:\USERS\MANOS\DESKTOP\COMPUTER-GRAPHICS\INCLUDE\GLM\DETAIL\TYPE_VEC1.HPP
C:\USERS\MANOS\DESKTOP\COMPUTER-GRAPHICS\INCLUDE\GLM\DETAIL\TYPE_VEC1.INL
C:\USERS\MANOS\DESKTOP\COMPUTER-GRAPHICS\INCLUDE\GLM\DETAIL\FUNC_EXPONENTIAL.INL
C:\USERS\MANOS\DESKTOP\COMPUTER-GRAPHICS\INCLUDE\GLM\DETAIL\FUNC_VECTOR_RELATIONAL.HPP
C:\USERS\MANOS\DESKTOP\COMPUTER-GRAPHICS\INCLUDE\GLM\DETAIL\FUNC_VECTOR_RELATIONAL.INL
C:\USERS\MANOS\DESKTOP\COMPUTER-GRAPHICS\INCLUDE\GLM\COMMON.HPP
C:\USERS\MANOS\DESKTOP\COMPUTER-GRAPHICS\INCLUDE\GLM\DETAIL\FUNC_COMMON.HPP
C:\USERS\MANOS\DESKTOP\COMPUTER-GRAPHICS\INCLUDE\GLM\DETAIL\FUNC_COMMON.INL
C:\USERS\MANOS\DESKTOP\COMPUTER-GRAPHICS\INCLUDE\GLM\PACKING.HPP
C:\USERS\MANOS\DESKTOP\COMPUTER-GRAPHICS\INCLUDE\GLM\DETAIL\FUNC_PACKING.HPP
C:\USERS\MANOS\DESKTOP\COMPUTER-GRAPHICS\INCLUDE\GLM\DETAIL\FUNC_PACKING.INL
C:\USERS\MANOS\DESKTOP\COMPUTER-GRAPHICS\INCLUDE\GLM\DETAIL\TYPE_HALF.HPP
C:\USERS\MANOS\DESKTOP\COMPUTER-GRAPHICS\INCLUDE\GLM\DETAIL\TYPE_HALF.INL
C:\USERS\MANOS\DESKTOP\COMPUTER-GRAPHICS\INCLUDE\GLM\GEOMETRIC.HPP
C:\USERS\MANOS\DESKTOP\COMPUTER-GRAPHICS\INCLUDE\GLM\DETAIL\FUNC_GEOMETRIC.HPP
C:\USERS\MANOS\DESKTOP\COMPUTER-GRAPHICS\INCLUDE\GLM\DETAIL\FUNC_GEOMETRIC.INL
C:\USERS\MANOS\DESKTOP\COMPUTER-GRAPHICS\INCLUDE\GLM\MATRIX.HPP
C:\USERS\MANOS\DESKTOP\COMPUTER-GRAPHICS\INCLUDE\GLM\DETAIL\FUNC_MATRIX.HPP
C:\USERS\MANOS\DESKTOP\COMPUTER-GRAPHICS\INCLUDE\GLM\DETAIL\FUNC_MATRIX.INL
C:\USERS\MANOS\DESKTOP\COMPUTER-GRAPHICS\INCLUDE\GLM\VECTOR_RELATIONAL.HPP
C:\USERS\MANOS\DESKTOP\COMPUTER-GRAPHICS\INCLUDE\GLM\INTEGER.HPP
C:\USERS\MANOS\DESKTOP\COMPUTER-GRAPHICS\INCLUDE\GLM\DETAIL\FUNC_INTEGER.HPP
C:\USERS\MANOS\DESKTOP\COMPUTER-GRAPHICS\INCLUDE\GLM\DETAIL\FUNC_INTEGER.INL
C:\USERS\MANOS\DESKTOP\COMPUTER-GRAPHICS\INCLUDE\GLM\GTC\QUATERNION.HPP
C:\USERS\MANOS\DESKTOP\COMPUTER-GRAPHICS\INCLUDE\GLM\GTC\CONSTANTS.HPP
C:\USERS\MANOS\DESKTOP\COMPUTER-GRAPHICS\INCLUDE\GLM\GTC\CONSTANTS.INL
C:\USERS\MANOS\DESKTOP\COMPUTER-GRAPHICS\INCLUDE\GLM\GTC\QUATERNION.INL
C:\USERS\MANOS\DESKTOP\COMPUTER-GRAPHICS\INCLUDE\GLM\GTC\MATRIX_TRANSFORM.HPP
C:\USERS\MANOS\DESKTOP\COMPUTER-GRAPHICS\INCLUDE\GLM\GTC\MATRIX_TRANSFORM.INL
C:\USERS\MANOS\DESKTOP\COMPUTER-GRAPHICS\INCLUDE\GLM\GTX\EULER_ANGLES.HPP
C:\USERS\MANOS\DESKTOP\COMPUTER-GRAPHICS\INCLUDE\GLM\GTX\EULER_ANGLES.INL
C:\USERS\MANOS\DESKTOP\COMPUTER-GRAPHICS\INCLUDE\GLM\GTX\PROJECTION.HPP
C:\USERS\MANOS\DESKTOP\COMPUTER-GRAPHICS\INCLUDE\GLM\GTX\PROJECTION.INL
