^C:\USERS\MANOS\DESKTOP\COMPUTER-GRAPHICS\075 EXPLODING SHAPE\MAIN.CPP
C:\USERS\MANOS\DESKTOP\COMPUTER-GRAPHICS\075 EXPLODING SHAPE\DEBUG\VC120.PDB
C:\USERS\MANOS\DESKTOP\COMPUTER-GRAPHICS\075 EXPLODING SHAPE\DEBUG\VC120.IDB
C:\USERS\MANOS\DESKTOP\COMPUTER-GRAPHICS\075 EXPLODING SHAPE\DEBUG\MAIN.OBJ
