^C:\USERS\40168970\DOCUMENTS\COMPUTER-GRAPHICS\045 TARGET CAMERA\DEBUG\MAIN.OBJ|C:\USERS\40168970\DOCUMENTS\COMPUTER-GRAPHICS\DEBUG\LIBENUGRAPHICS.LIB
C:\USERS\40168970\DOCUMENTS\COMPUTER-GRAPHICS\DEBUG\045 TARGET CAMERA.ILK
C:\USERS\40168970\DOCUMENTS\COMPUTER-GRAPHICS\DEBUG\045 TARGET CAMERA.EXE
C:\USERS\40168970\DOCUMENTS\COMPUTER-GRAPHICS\DEBUG\045 TARGET CAMERA.PDB
^C:\USERS\40168970\DOWNLOADS\40168970-COMPUTER-GRAPHICS-E2F7EB8F317F\40168970-COMPUTER-GRAPHICS-E2F7EB8F317F\045 TARGET CAMERA\DEBUG\MAIN.OBJ|C:\USERS\40168970\DOWNLOADS\40168970-COMPUTER-GRAPHICS-E2F7EB8F317F\40168970-COMPUTER-GRAPHICS-E2F7EB8F317F\DEBUG\LIBENUGRAPHICS.LIB
C:\USERS\40168970\DOWNLOADS\40168970-COMPUTER-GRAPHICS-E2F7EB8F317F\40168970-COMPUTER-GRAPHICS-E2F7EB8F317F\DEBUG\045 TARGET CAMERA.ILK
C:\USERS\40168970\DOWNLOADS\40168970-COMPUTER-GRAPHICS-E2F7EB8F317F\40168970-COMPUTER-GRAPHICS-E2F7EB8F317F\DEBUG\045 TARGET CAMERA.EXE
C:\USERS\40168970\DOWNLOADS\40168970-COMPUTER-GRAPHICS-E2F7EB8F317F\40168970-COMPUTER-GRAPHICS-E2F7EB8F317F\DEBUG\045 TARGET CAMERA.PDB
