^C:\USERS\40168970\DOCUMENTS\COMPUTER-GRAPHICS\060 PHONG SHADING\DEBUG\MAIN.OBJ|C:\USERS\40168970\DOCUMENTS\COMPUTER-GRAPHICS\DEBUG\LIBENUGRAPHICS.LIB
/OUT:"C:\USERS\40168970\DOCUMENTS\COMPUTER-GRAPHICS\DEBUG\060 PHONG SHADING.EXE" /INCREMENTAL /NOLOGO OpenGL32.lib GLU32.lib glew32.lib glfw3dll.lib FreeImage.lib assimp.lib kernel32.lib user32.lib gdi32.lib winspool.lib comdlg32.lib advapi32.lib shell32.lib ole32.lib oleaut32.lib uuid.lib odbc32.lib odbccp32.lib /MANIFEST /MANIFESTUAC:"level='asInvoker' uiAccess='false'" /manifest:embed /DEBUG /PDB:"C:\USERS\40168970\DOCUMENTS\COMPUTER-GRAPHICS\DEBUG\060 PHONG SHADING.PDB" /SUBSYSTEM:CONSOLE /TLBID:1 /DYNAMICBASE /NXCOMPAT /IMPLIB:"C:\USERS\40168970\DOCUMENTS\COMPUTER-GRAPHICS\DEBUG\060 PHONG SHADING.LIB" /MACHINE:X86 DEBUG\MAIN.OBJ"C:\USERS\40168970\DOCUMENTS\COMPUTER-GRAPHICS\DEBUG\LIBENUGRAPHICS.LIB"
^C:\USERS\40168970\DOWNLOADS\40168970-COMPUTER-GRAPHICS-69687240427B\40168970-COMPUTER-GRAPHICS-69687240427B\060 PHONG SHADING\DEBUG\MAIN.OBJ|C:\USERS\40168970\DOWNLOADS\40168970-COMPUTER-GRAPHICS-69687240427B\40168970-COMPUTER-GRAPHICS-69687240427B\060 PHONG SHADING\DEBUG\NODE.OBJ|C:\USERS\40168970\DOWNLOADS\40168970-COMPUTER-GRAPHICS-69687240427B\40168970-COMPUTER-GRAPHICS-69687240427B\DEBUG\LIBENUGRAPHICS.LIB
/OUT:"C:\USERS\40168970\DOWNLOADS\40168970-COMPUTER-GRAPHICS-69687240427B\40168970-COMPUTER-GRAPHICS-69687240427B\DEBUG\060 PHONG SHADING.EXE" /INCREMENTAL /NOLOGO OpenGL32.lib GLU32.lib glew32.lib glfw3dll.lib FreeImage.lib assimp.lib kernel32.lib user32.lib gdi32.lib winspool.lib comdlg32.lib advapi32.lib shell32.lib ole32.lib oleaut32.lib uuid.lib odbc32.lib odbccp32.lib /MANIFEST /MANIFESTUAC:"level='asInvoker' uiAccess='false'" /manifest:embed /DEBUG /PDB:"C:\USERS\40168970\DOWNLOADS\40168970-COMPUTER-GRAPHICS-69687240427B\40168970-COMPUTER-GRAPHICS-69687240427B\DEBUG\060 PHONG SHADING.PDB" /SUBSYSTEM:CONSOLE /TLBID:1 /DYNAMICBASE /NXCOMPAT /IMPLIB:"C:\USERS\40168970\DOWNLOADS\40168970-COMPUTER-GRAPHICS-69687240427B\40168970-COMPUTER-GRAPHICS-69687240427B\DEBUG\060 PHONG SHADING.LIB" /MACHINE:X86 DEBUG\MAIN.OBJDEBUG\NODE.OBJ"C:\USERS\40168970\DOWNLOADS\40168970-COMPUTER-GRAPHICS-69687240427B\40168970-COMPUTER-GRAPHICS-69687240427B\DEBUG\LIBENUGRAPHICS.LIB"
^C:\USERS\MANOS\DESKTOP\COMPUTER-GRAPHICS\060 PHONG SHADING\DEBUG\MAIN.OBJ|C:\USERS\MANOS\DESKTOP\COMPUTER-GRAPHICS\060 PHONG SHADING\DEBUG\NODE.OBJ|C:\USERS\MANOS\DESKTOP\COMPUTER-GRAPHICS\DEBUG\LIBENUGRAPHICS.LIB
/OUT:"C:\USERS\MANOS\DESKTOP\COMPUTER-GRAPHICS\DEBUG\060 PHONG SHADING.EXE" /INCREMENTAL /NOLOGO OpenGL32.lib GLU32.lib glew32.lib glfw3dll.lib FreeImage.lib assimp.lib kernel32.lib user32.lib gdi32.lib winspool.lib comdlg32.lib advapi32.lib shell32.lib ole32.lib oleaut32.lib uuid.lib odbc32.lib odbccp32.lib /MANIFEST /MANIFESTUAC:"level='asInvoker' uiAccess='false'" /manifest:embed /DEBUG /PDB:"C:\USERS\MANOS\DESKTOP\COMPUTER-GRAPHICS\DEBUG\060 PHONG SHADING.PDB" /SUBSYSTEM:CONSOLE /TLBID:1 /DYNAMICBASE /NXCOMPAT /IMPLIB:"C:\USERS\MANOS\DESKTOP\COMPUTER-GRAPHICS\DEBUG\060 PHONG SHADING.LIB" /MACHINE:X86 DEBUG\MAIN.OBJDEBUG\NODE.OBJ"C:\USERS\MANOS\DESKTOP\COMPUTER-GRAPHICS\DEBUG\LIBENUGRAPHICS.LIB"
