^C:\USERS\MANOS\DESKTOP\COMPUTER-GRAPHICS\017 FULL TRANSFORMATION\DEBUG\MAIN.OBJ|C:\USERS\MANOS\DESKTOP\COMPUTER-GRAPHICS\DEBUG\LIBENUGRAPHICS.LIB
C:\USERS\MANOS\DESKTOP\COMPUTER-GRAPHICS\DEBUG\017 FULL TRANSFORMATION.ILK
C:\USERS\MANOS\DESKTOP\COMPUTER-GRAPHICS\DEBUG\017 FULL TRANSFORMATION.EXE
C:\USERS\MANOS\DESKTOP\COMPUTER-GRAPHICS\DEBUG\017 FULL TRANSFORMATION.PDB
