^C:\USERS\40168970\DOWNLOADS\COMPUTERGRAPHICSSET08116\COMPUTER GRAPHICS\003 RENDERING A QUAD 1\MAIN.CPP
C:\USERS\40168970\DOWNLOADS\COMPUTERGRAPHICSSET08116\COMPUTER GRAPHICS\003 RENDERING A QUAD 1\DEBUG\VC120.PDB
C:\USERS\40168970\DOWNLOADS\COMPUTERGRAPHICSSET08116\COMPUTER GRAPHICS\003 RENDERING A QUAD 1\DEBUG\VC120.IDB
C:\USERS\40168970\DOWNLOADS\COMPUTERGRAPHICSSET08116\COMPUTER GRAPHICS\003 RENDERING A QUAD 1\DEBUG\MAIN.OBJ
^C:\USERS\MANOS\DESKTOP\COMPUTER-GRAPHICS\003 RENDERING A QUAD 1\MAIN.CPP
C:\USERS\MANOS\DESKTOP\COMPUTER-GRAPHICS\003 RENDERING A QUAD 1\DEBUG\VC120.PDB
C:\USERS\MANOS\DESKTOP\COMPUTER-GRAPHICS\003 RENDERING A QUAD 1\DEBUG\VC120.IDB
C:\USERS\MANOS\DESKTOP\COMPUTER-GRAPHICS\003 RENDERING A QUAD 1\DEBUG\MAIN.OBJ
