^C:\USERS\40168970\DOWNLOADS\COMPUTERGRAPHICSSET08116\COMPUTER GRAPHICS\003 RENDERING A QUAD 1\DEBUG\MAIN.OBJ|C:\USERS\40168970\DOWNLOADS\COMPUTERGRAPHICSSET08116\COMPUTER GRAPHICS\DEBUG\LIBENUGRAPHICS.LIB
C:\USERS\40168970\DOWNLOADS\COMPUTERGRAPHICSSET08116\COMPUTER GRAPHICS\DEBUG\003 RENDERING A QUAD 1.ILK
C:\USERS\40168970\DOWNLOADS\COMPUTERGRAPHICSSET08116\COMPUTER GRAPHICS\DEBUG\003 RENDERING A QUAD 1.EXE
C:\USERS\40168970\DOWNLOADS\COMPUTERGRAPHICSSET08116\COMPUTER GRAPHICS\DEBUG\003 RENDERING A QUAD 1.PDB
^C:\USERS\MANOS\DESKTOP\COMPUTER-GRAPHICS\003 RENDERING A QUAD 1\DEBUG\MAIN.OBJ|C:\USERS\MANOS\DESKTOP\COMPUTER-GRAPHICS\DEBUG\LIBENUGRAPHICS.LIB
C:\USERS\MANOS\DESKTOP\COMPUTER-GRAPHICS\DEBUG\003 RENDERING A QUAD 1.ILK
C:\USERS\MANOS\DESKTOP\COMPUTER-GRAPHICS\DEBUG\003 RENDERING A QUAD 1.EXE
C:\USERS\MANOS\DESKTOP\COMPUTER-GRAPHICS\DEBUG\003 RENDERING A QUAD 1.PDB
