^C:\USERS\40168970\DOCUMENTS\COMPUTER-GRAPHICS\ONGOING ASSESSMENT\INTERSECTIONS\INTERSECTIONS\DEBUG\INTERSECTIONS.OBJ|C:\USERS\40168970\DOCUMENTS\COMPUTER-GRAPHICS\ONGOING ASSESSMENT\INTERSECTIONS\INTERSECTIONS\DEBUG\MAIN.OBJ|C:\USERS\40168970\DOCUMENTS\COMPUTER-GRAPHICS\ONGOING ASSESSMENT\INTERSECTIONS\INTERSECTIONS\DEBUG\VECTOR3.OBJ
/OUT:"C:\USERS\40168970\DOCUMENTS\COMPUTER-GRAPHICS\ONGOING ASSESSMENT\INTERSECTIONS\DEBUG\INTERSECTIONS.EXE" /INCREMENTAL /NOLOGO kernel32.lib user32.lib gdi32.lib winspool.lib comdlg32.lib advapi32.lib shell32.lib ole32.lib oleaut32.lib uuid.lib odbc32.lib odbccp32.lib /MANIFEST /MANIFESTUAC:"level='asInvoker' uiAccess='false'" /manifest:embed /DEBUG /PDB:"C:\USERS\40168970\DOCUMENTS\COMPUTER-GRAPHICS\ONGOING ASSESSMENT\INTERSECTIONS\DEBUG\INTERSECTIONS.PDB" /TLBID:1 /DYNAMICBASE /NXCOMPAT /IMPLIB:"C:\USERS\40168970\DOCUMENTS\COMPUTER-GRAPHICS\ONGOING ASSESSMENT\INTERSECTIONS\DEBUG\INTERSECTIONS.LIB" /MACHINE:X86 DEBUG\INTERSECTIONS.OBJDEBUG\MAIN.OBJDEBUG\VECTOR3.OBJ
^C:\USERS\MANOS\DESKTOP\COMPUTER-GRAPHICS\ONGOING ASSESSMENT\INTERSECTIONS\INTERSECTIONS\DEBUG\INTERSECTIONS.OBJ|C:\USERS\MANOS\DESKTOP\COMPUTER-GRAPHICS\ONGOING ASSESSMENT\INTERSECTIONS\INTERSECTIONS\DEBUG\MAIN.OBJ|C:\USERS\MANOS\DESKTOP\COMPUTER-GRAPHICS\ONGOING ASSESSMENT\INTERSECTIONS\INTERSECTIONS\DEBUG\VECTOR3.OBJ
/OUT:"C:\USERS\MANOS\DESKTOP\COMPUTER-GRAPHICS\ONGOING ASSESSMENT\INTERSECTIONS\DEBUG\INTERSECTIONS.EXE" /INCREMENTAL /NOLOGO kernel32.lib user32.lib gdi32.lib winspool.lib comdlg32.lib advapi32.lib shell32.lib ole32.lib oleaut32.lib uuid.lib odbc32.lib odbccp32.lib /MANIFEST /MANIFESTUAC:"level='asInvoker' uiAccess='false'" /manifest:embed /DEBUG /PDB:"C:\USERS\MANOS\DESKTOP\COMPUTER-GRAPHICS\ONGOING ASSESSMENT\INTERSECTIONS\DEBUG\INTERSECTIONS.PDB" /TLBID:1 /DYNAMICBASE /NXCOMPAT /IMPLIB:"C:\USERS\MANOS\DESKTOP\COMPUTER-GRAPHICS\ONGOING ASSESSMENT\INTERSECTIONS\DEBUG\INTERSECTIONS.LIB" /MACHINE:X86 DEBUG\INTERSECTIONS.OBJDEBUG\MAIN.OBJDEBUG\VECTOR3.OBJ
^C:\COMPUTER-GRAPHICS\ONGOING ASSESSMENT\INTERSECTIONS\INTERSECTIONS\DEBUG\INTERSECTIONS.OBJ|C:\COMPUTER-GRAPHICS\ONGOING ASSESSMENT\INTERSECTIONS\INTERSECTIONS\DEBUG\MAIN.OBJ|C:\COMPUTER-GRAPHICS\ONGOING ASSESSMENT\INTERSECTIONS\INTERSECTIONS\DEBUG\VECTOR3.OBJ
/OUT:"C:\COMPUTER-GRAPHICS\ONGOING ASSESSMENT\INTERSECTIONS\DEBUG\INTERSECTIONS.EXE" /INCREMENTAL /NOLOGO kernel32.lib user32.lib gdi32.lib winspool.lib comdlg32.lib advapi32.lib shell32.lib ole32.lib oleaut32.lib uuid.lib odbc32.lib odbccp32.lib /MANIFEST /MANIFESTUAC:"level='asInvoker' uiAccess='false'" /manifest:embed /DEBUG /PDB:"C:\COMPUTER-GRAPHICS\ONGOING ASSESSMENT\INTERSECTIONS\DEBUG\INTERSECTIONS.PDB" /TLBID:1 /DYNAMICBASE /NXCOMPAT /IMPLIB:"C:\COMPUTER-GRAPHICS\ONGOING ASSESSMENT\INTERSECTIONS\DEBUG\INTERSECTIONS.LIB" /MACHINE:X86 DEBUG\INTERSECTIONS.OBJDEBUG\MAIN.OBJDEBUG\VECTOR3.OBJ
