^C:\USERS\40168970\DOWNLOADS\COMPUTERGRAPHICSSET08116\COMPUTER GRAPHICS\008 RENDERING A QUAD 6\MAIN.CPP
C:\PROGRAM FILES (X86)\MICROSOFT VISUAL STUDIO 12.0\VC\BIN\1033\CLUI.DLL
C:\WINDOWS\GLOBALIZATION\SORTING\SORTDEFAULT.NLS
C:\WINDOWS\SYSTEM32\RSAENH.DLL
C:\WINDOWS\SYSTEM32\TZRES.DLL
C:\USERS\40168970\DOWNLOADS\COMPUTERGRAPHICSSET08116\COMPUTER GRAPHICS\LIBENUGRAPHICS\GRAPHICS_FRAMEWORK.H
C:\USERS\40168970\DOWNLOADS\COMPUTERGRAPHICSSET08116\COMPUTER GRAPHICS\LIBENUGRAPHICS\RENDERER.H
C:\USERS\40168970\DOWNLOADS\COMPUTERGRAPHICSSET08116\COMPUTER GRAPHICS\LIBENUGRAPHICS\STDAFX.H
C:\USERS\40168970\DOWNLOADS\COMPUTERGRAPHICSSET08116\COMPUTER GRAPHICS\LIBENUGRAPHICS\TARGETVER.H
C:\PROGRAM FILES (X86)\WINDOWS KITS\8.1\INCLUDE\SHARED\SDKDDKVER.H
C:\USERS\40168970\DOWNLOADS\COMPUTERGRAPHICSSET08116\COMPUTER GRAPHICS\INCLUDE\GLM\GLM.HPP
C:\USERS\40168970\DOWNLOADS\COMPUTERGRAPHICSSET08116\COMPUTER GRAPHICS\INCLUDE\GLM\DETAIL\_FIXES.HPP
C:\PROGRAM FILES (X86)\MICROSOFT VISUAL STUDIO 12.0\VC\INCLUDE\CMATH
C:\PROGRAM FILES (X86)\MICROSOFT VISUAL STUDIO 12.0\VC\INCLUDE\YVALS.H
C:\PROGRAM FILES (X86)\MICROSOFT VISUAL STUDIO 12.0\VC\INCLUDE\XKEYCHECK.H
C:\PROGRAM FILES (X86)\MICROSOFT VISUAL STUDIO 12.0\VC\INCLUDE\CRTDEFS.H
C:\PROGRAM FILES (X86)\MICROSOFT VISUAL STUDIO 12.0\VC\INCLUDE\SAL.H
C:\PROGRAM FILES (X86)\MICROSOFT VISUAL STUDIO 12.0\VC\INCLUDE\CONCURRENCYSAL.H
C:\PROGRAM FILES (X86)\MICROSOFT VISUAL STUDIO 12.0\VC\INCLUDE\VADEFS.H
C:\PROGRAM FILES (X86)\MICROSOFT VISUAL STUDIO 12.0\VC\INCLUDE\USE_ANSI.H
C:\PROGRAM FILES (X86)\MICROSOFT VISUAL STUDIO 12.0\VC\INCLUDE\MATH.H
C:\PROGRAM FILES (X86)\MICROSOFT VISUAL STUDIO 12.0\VC\INCLUDE\XTGMATH.H
C:\PROGRAM FILES (X86)\MICROSOFT VISUAL STUDIO 12.0\VC\INCLUDE\XTR1COMMON
C:\PROGRAM FILES (X86)\MICROSOFT VISUAL STUDIO 12.0\VC\INCLUDE\CLIMITS
C:\PROGRAM FILES (X86)\MICROSOFT VISUAL STUDIO 12.0\VC\INCLUDE\LIMITS.H
C:\PROGRAM FILES (X86)\MICROSOFT VISUAL STUDIO 12.0\VC\INCLUDE\CFLOAT
C:\PROGRAM FILES (X86)\MICROSOFT VISUAL STUDIO 12.0\VC\INCLUDE\FLOAT.H
C:\PROGRAM FILES (X86)\MICROSOFT VISUAL STUDIO 12.0\VC\INCLUDE\CRTWRN.H
C:\PROGRAM FILES (X86)\MICROSOFT VISUAL STUDIO 12.0\VC\INCLUDE\LIMITS
C:\PROGRAM FILES (X86)\MICROSOFT VISUAL STUDIO 12.0\VC\INCLUDE\YMATH.H
C:\PROGRAM FILES (X86)\MICROSOFT VISUAL STUDIO 12.0\VC\INCLUDE\CWCHAR
C:\PROGRAM FILES (X86)\MICROSOFT VISUAL STUDIO 12.0\VC\INCLUDE\WCHAR.H
C:\PROGRAM FILES (X86)\MICROSOFT VISUAL STUDIO 12.0\VC\INCLUDE\SWPRINTF.INL
C:\PROGRAM FILES (X86)\MICROSOFT VISUAL STUDIO 12.0\VC\INCLUDE\WTIME.INL
C:\PROGRAM FILES (X86)\MICROSOFT VISUAL STUDIO 12.0\VC\INCLUDE\XSTDDEF
C:\PROGRAM FILES (X86)\MICROSOFT VISUAL STUDIO 12.0\VC\INCLUDE\STDLIB.H
C:\PROGRAM FILES (X86)\MICROSOFT VISUAL STUDIO 12.0\VC\INCLUDE\CSTDDEF
C:\PROGRAM FILES (X86)\MICROSOFT VISUAL STUDIO 12.0\VC\INCLUDE\STDDEF.H
C:\PROGRAM FILES (X86)\MICROSOFT VISUAL STUDIO 12.0\VC\INCLUDE\INITIALIZER_LIST
C:\PROGRAM FILES (X86)\MICROSOFT VISUAL STUDIO 12.0\VC\INCLUDE\CASSERT
C:\PROGRAM FILES (X86)\MICROSOFT VISUAL STUDIO 12.0\VC\INCLUDE\ASSERT.H
C:\USERS\40168970\DOWNLOADS\COMPUTERGRAPHICSSET08116\COMPUTER GRAPHICS\INCLUDE\GLM\FWD.HPP
C:\USERS\40168970\DOWNLOADS\COMPUTERGRAPHICSSET08116\COMPUTER GRAPHICS\INCLUDE\GLM\DETAIL\TYPE_INT.HPP
C:\USERS\40168970\DOWNLOADS\COMPUTERGRAPHICSSET08116\COMPUTER GRAPHICS\INCLUDE\GLM\DETAIL\SETUP.HPP
C:\PROGRAM FILES (X86)\MICROSOFT VISUAL STUDIO 12.0\VC\INCLUDE\IMMINTRIN.H
C:\PROGRAM FILES (X86)\MICROSOFT VISUAL STUDIO 12.0\VC\INCLUDE\WMMINTRIN.H
C:\PROGRAM FILES (X86)\MICROSOFT VISUAL STUDIO 12.0\VC\INCLUDE\NMMINTRIN.H
C:\PROGRAM FILES (X86)\MICROSOFT VISUAL STUDIO 12.0\VC\INCLUDE\SMMINTRIN.H
C:\PROGRAM FILES (X86)\MICROSOFT VISUAL STUDIO 12.0\VC\INCLUDE\TMMINTRIN.H
C:\PROGRAM FILES (X86)\MICROSOFT VISUAL STUDIO 12.0\VC\INCLUDE\PMMINTRIN.H
C:\PROGRAM FILES (X86)\MICROSOFT VISUAL STUDIO 12.0\VC\INCLUDE\EMMINTRIN.H
C:\PROGRAM FILES (X86)\MICROSOFT VISUAL STUDIO 12.0\VC\INCLUDE\XMMINTRIN.H
C:\PROGRAM FILES (X86)\MICROSOFT VISUAL STUDIO 12.0\VC\INCLUDE\MMINTRIN.H
C:\PROGRAM FILES (X86)\MICROSOFT VISUAL STUDIO 12.0\VC\INCLUDE\MALLOC.H
C:\PROGRAM FILES (X86)\MICROSOFT VISUAL STUDIO 12.0\VC\INCLUDE\CSTDINT
C:\PROGRAM FILES (X86)\MICROSOFT VISUAL STUDIO 12.0\VC\INCLUDE\STDINT.H
C:\USERS\40168970\DOWNLOADS\COMPUTERGRAPHICSSET08116\COMPUTER GRAPHICS\INCLUDE\GLM\DETAIL\TYPE_FLOAT.HPP
C:\USERS\40168970\DOWNLOADS\COMPUTERGRAPHICSSET08116\COMPUTER GRAPHICS\INCLUDE\GLM\DETAIL\TYPE_VEC.HPP
C:\USERS\40168970\DOWNLOADS\COMPUTERGRAPHICSSET08116\COMPUTER GRAPHICS\INCLUDE\GLM\DETAIL\PRECISION.HPP
C:\USERS\40168970\DOWNLOADS\COMPUTERGRAPHICSSET08116\COMPUTER GRAPHICS\INCLUDE\GLM\DETAIL\TYPE_MAT.HPP
C:\USERS\40168970\DOWNLOADS\COMPUTERGRAPHICSSET08116\COMPUTER GRAPHICS\INCLUDE\GLM\VEC2.HPP
C:\USERS\40168970\DOWNLOADS\COMPUTERGRAPHICSSET08116\COMPUTER GRAPHICS\INCLUDE\GLM\DETAIL\TYPE_VEC2.HPP
C:\USERS\40168970\DOWNLOADS\COMPUTERGRAPHICSSET08116\COMPUTER GRAPHICS\INCLUDE\GLM\DETAIL\TYPE_VEC2.INL
C:\USERS\40168970\DOWNLOADS\COMPUTERGRAPHICSSET08116\COMPUTER GRAPHICS\INCLUDE\GLM\VEC3.HPP
C:\USERS\40168970\DOWNLOADS\COMPUTERGRAPHICSSET08116\COMPUTER GRAPHICS\INCLUDE\GLM\DETAIL\TYPE_VEC3.HPP
C:\USERS\40168970\DOWNLOADS\COMPUTERGRAPHICSSET08116\COMPUTER GRAPHICS\INCLUDE\GLM\DETAIL\TYPE_VEC3.INL
C:\USERS\40168970\DOWNLOADS\COMPUTERGRAPHICSSET08116\COMPUTER GRAPHICS\INCLUDE\GLM\VEC4.HPP
C:\USERS\40168970\DOWNLOADS\COMPUTERGRAPHICSSET08116\COMPUTER GRAPHICS\INCLUDE\GLM\DETAIL\TYPE_VEC4.HPP
C:\USERS\40168970\DOWNLOADS\COMPUTERGRAPHICSSET08116\COMPUTER GRAPHICS\INCLUDE\GLM\DETAIL\TYPE_VEC4.INL
C:\USERS\40168970\DOWNLOADS\COMPUTERGRAPHICSSET08116\COMPUTER GRAPHICS\INCLUDE\GLM\MAT2X2.HPP
C:\USERS\40168970\DOWNLOADS\COMPUTERGRAPHICSSET08116\COMPUTER GRAPHICS\INCLUDE\GLM\DETAIL\TYPE_MAT2X2.HPP
C:\USERS\40168970\DOWNLOADS\COMPUTERGRAPHICSSET08116\COMPUTER GRAPHICS\INCLUDE\GLM\DETAIL\TYPE_MAT2X2.INL
C:\USERS\40168970\DOWNLOADS\COMPUTERGRAPHICSSET08116\COMPUTER GRAPHICS\INCLUDE\GLM\MAT2X3.HPP
C:\USERS\40168970\DOWNLOADS\COMPUTERGRAPHICSSET08116\COMPUTER GRAPHICS\INCLUDE\GLM\DETAIL\TYPE_MAT2X3.HPP
C:\USERS\40168970\DOWNLOADS\COMPUTERGRAPHICSSET08116\COMPUTER GRAPHICS\INCLUDE\GLM\DETAIL\TYPE_MAT2X3.INL
C:\USERS\40168970\DOWNLOADS\COMPUTERGRAPHICSSET08116\COMPUTER GRAPHICS\INCLUDE\GLM\MAT2X4.HPP
C:\USERS\40168970\DOWNLOADS\COMPUTERGRAPHICSSET08116\COMPUTER GRAPHICS\INCLUDE\GLM\DETAIL\TYPE_MAT2X4.HPP
C:\USERS\40168970\DOWNLOADS\COMPUTERGRAPHICSSET08116\COMPUTER GRAPHICS\INCLUDE\GLM\DETAIL\TYPE_MAT2X4.INL
C:\USERS\40168970\DOWNLOADS\COMPUTERGRAPHICSSET08116\COMPUTER GRAPHICS\INCLUDE\GLM\MAT3X2.HPP
C:\USERS\40168970\DOWNLOADS\COMPUTERGRAPHICSSET08116\COMPUTER GRAPHICS\INCLUDE\GLM\DETAIL\TYPE_MAT3X2.HPP
C:\USERS\40168970\DOWNLOADS\COMPUTERGRAPHICSSET08116\COMPUTER GRAPHICS\INCLUDE\GLM\DETAIL\TYPE_MAT3X2.INL
C:\USERS\40168970\DOWNLOADS\COMPUTERGRAPHICSSET08116\COMPUTER GRAPHICS\INCLUDE\GLM\MAT3X3.HPP
C:\USERS\40168970\DOWNLOADS\COMPUTERGRAPHICSSET08116\COMPUTER GRAPHICS\INCLUDE\GLM\DETAIL\TYPE_MAT3X3.HPP
C:\USERS\40168970\DOWNLOADS\COMPUTERGRAPHICSSET08116\COMPUTER GRAPHICS\INCLUDE\GLM\DETAIL\TYPE_MAT3X3.INL
C:\USERS\40168970\DOWNLOADS\COMPUTERGRAPHICSSET08116\COMPUTER GRAPHICS\INCLUDE\GLM\MAT3X4.HPP
C:\USERS\40168970\DOWNLOADS\COMPUTERGRAPHICSSET08116\COMPUTER GRAPHICS\INCLUDE\GLM\DETAIL\TYPE_MAT3X4.HPP
C:\USERS\40168970\DOWNLOADS\COMPUTERGRAPHICSSET08116\COMPUTER GRAPHICS\INCLUDE\GLM\DETAIL\TYPE_MAT3X4.INL
C:\USERS\40168970\DOWNLOADS\COMPUTERGRAPHICSSET08116\COMPUTER GRAPHICS\INCLUDE\GLM\MAT4X2.HPP
C:\USERS\40168970\DOWNLOADS\COMPUTERGRAPHICSSET08116\COMPUTER GRAPHICS\INCLUDE\GLM\DETAIL\TYPE_MAT4X2.HPP
C:\USERS\40168970\DOWNLOADS\COMPUTERGRAPHICSSET08116\COMPUTER GRAPHICS\INCLUDE\GLM\DETAIL\TYPE_MAT4X2.INL
C:\USERS\40168970\DOWNLOADS\COMPUTERGRAPHICSSET08116\COMPUTER GRAPHICS\INCLUDE\GLM\MAT4X3.HPP
C:\USERS\40168970\DOWNLOADS\COMPUTERGRAPHICSSET08116\COMPUTER GRAPHICS\INCLUDE\GLM\DETAIL\TYPE_MAT4X3.HPP
C:\USERS\40168970\DOWNLOADS\COMPUTERGRAPHICSSET08116\COMPUTER GRAPHICS\INCLUDE\GLM\DETAIL\TYPE_MAT4X3.INL
C:\USERS\40168970\DOWNLOADS\COMPUTERGRAPHICSSET08116\COMPUTER GRAPHICS\INCLUDE\GLM\MAT4X4.HPP
C:\USERS\40168970\DOWNLOADS\COMPUTERGRAPHICSSET08116\COMPUTER GRAPHICS\INCLUDE\GLM\DETAIL\TYPE_MAT4X4.HPP
C:\USERS\40168970\DOWNLOADS\COMPUTERGRAPHICSSET08116\COMPUTER GRAPHICS\INCLUDE\GLM\DETAIL\TYPE_MAT4X4.INL
C:\USERS\40168970\DOWNLOADS\COMPUTERGRAPHICSSET08116\COMPUTER GRAPHICS\INCLUDE\GLM\TRIGONOMETRIC.HPP
C:\USERS\40168970\DOWNLOADS\COMPUTERGRAPHICSSET08116\COMPUTER GRAPHICS\INCLUDE\GLM\DETAIL\FUNC_TRIGONOMETRIC.HPP
C:\USERS\40168970\DOWNLOADS\COMPUTERGRAPHICSSET08116\COMPUTER GRAPHICS\INCLUDE\GLM\DETAIL\FUNC_TRIGONOMETRIC.INL
C:\USERS\40168970\DOWNLOADS\COMPUTERGRAPHICSSET08116\COMPUTER GRAPHICS\INCLUDE\GLM\DETAIL\_VECTORIZE.HPP
C:\USERS\40168970\DOWNLOADS\COMPUTERGRAPHICSSET08116\COMPUTER GRAPHICS\INCLUDE\GLM\EXPONENTIAL.HPP
C:\USERS\40168970\DOWNLOADS\COMPUTERGRAPHICSSET08116\COMPUTER GRAPHICS\INCLUDE\GLM\DETAIL\FUNC_EXPONENTIAL.HPP
C:\USERS\40168970\DOWNLOADS\COMPUTERGRAPHICSSET08116\COMPUTER GRAPHICS\INCLUDE\GLM\DETAIL\TYPE_VEC1.HPP
C:\USERS\40168970\DOWNLOADS\COMPUTERGRAPHICSSET08116\COMPUTER GRAPHICS\INCLUDE\GLM\DETAIL\TYPE_VEC1.INL
C:\USERS\40168970\DOWNLOADS\COMPUTERGRAPHICSSET08116\COMPUTER GRAPHICS\INCLUDE\GLM\DETAIL\FUNC_EXPONENTIAL.INL
C:\USERS\40168970\DOWNLOADS\COMPUTERGRAPHICSSET08116\COMPUTER GRAPHICS\INCLUDE\GLM\DETAIL\FUNC_VECTOR_RELATIONAL.HPP
C:\USERS\40168970\DOWNLOADS\COMPUTERGRAPHICSSET08116\COMPUTER GRAPHICS\INCLUDE\GLM\DETAIL\FUNC_VECTOR_RELATIONAL.INL
C:\USERS\40168970\DOWNLOADS\COMPUTERGRAPHICSSET08116\COMPUTER GRAPHICS\INCLUDE\GLM\COMMON.HPP
C:\USERS\40168970\DOWNLOADS\COMPUTERGRAPHICSSET08116\COMPUTER GRAPHICS\INCLUDE\GLM\DETAIL\FUNC_COMMON.HPP
C:\USERS\40168970\DOWNLOADS\COMPUTERGRAPHICSSET08116\COMPUTER GRAPHICS\INCLUDE\GLM\DETAIL\FUNC_COMMON.INL
C:\USERS\40168970\DOWNLOADS\COMPUTERGRAPHICSSET08116\COMPUTER GRAPHICS\INCLUDE\GLM\PACKING.HPP
C:\USERS\40168970\DOWNLOADS\COMPUTERGRAPHICSSET08116\COMPUTER GRAPHICS\INCLUDE\GLM\DETAIL\FUNC_PACKING.HPP
C:\USERS\40168970\DOWNLOADS\COMPUTERGRAPHICSSET08116\COMPUTER GRAPHICS\INCLUDE\GLM\DETAIL\FUNC_PACKING.INL
C:\USERS\40168970\DOWNLOADS\COMPUTERGRAPHICSSET08116\COMPUTER GRAPHICS\INCLUDE\GLM\DETAIL\TYPE_HALF.HPP
C:\USERS\40168970\DOWNLOADS\COMPUTERGRAPHICSSET08116\COMPUTER GRAPHICS\INCLUDE\GLM\DETAIL\TYPE_HALF.INL
C:\USERS\40168970\DOWNLOADS\COMPUTERGRAPHICSSET08116\COMPUTER GRAPHICS\INCLUDE\GLM\GEOMETRIC.HPP
C:\USERS\40168970\DOWNLOADS\COMPUTERGRAPHICSSET08116\COMPUTER GRAPHICS\INCLUDE\GLM\DETAIL\FUNC_GEOMETRIC.HPP
C:\USERS\40168970\DOWNLOADS\COMPUTERGRAPHICSSET08116\COMPUTER GRAPHICS\INCLUDE\GLM\DETAIL\FUNC_GEOMETRIC.INL
C:\USERS\40168970\DOWNLOADS\COMPUTERGRAPHICSSET08116\COMPUTER GRAPHICS\INCLUDE\GLM\MATRIX.HPP
C:\USERS\40168970\DOWNLOADS\COMPUTERGRAPHICSSET08116\COMPUTER GRAPHICS\INCLUDE\GLM\DETAIL\FUNC_MATRIX.HPP
C:\USERS\40168970\DOWNLOADS\COMPUTERGRAPHICSSET08116\COMPUTER GRAPHICS\INCLUDE\GLM\DETAIL\FUNC_MATRIX.INL
C:\USERS\40168970\DOWNLOADS\COMPUTERGRAPHICSSET08116\COMPUTER GRAPHICS\INCLUDE\GLM\VECTOR_RELATIONAL.HPP
C:\USERS\40168970\DOWNLOADS\COMPUTERGRAPHICSSET08116\COMPUTER GRAPHICS\INCLUDE\GLM\INTEGER.HPP
C:\USERS\40168970\DOWNLOADS\COMPUTERGRAPHICSSET08116\COMPUTER GRAPHICS\INCLUDE\GLM\DETAIL\FUNC_INTEGER.HPP
C:\USERS\40168970\DOWNLOADS\COMPUTERGRAPHICSSET08116\COMPUTER GRAPHICS\INCLUDE\GLM\DETAIL\FUNC_INTEGER.INL
C:\PROGRAM FILES (X86)\MICROSOFT VISUAL STUDIO 12.0\VC\INCLUDE\INTRIN.H
C:\PROGRAM FILES (X86)\MICROSOFT VISUAL STUDIO 12.0\VC\INCLUDE\SETJMP.H
C:\PROGRAM FILES (X86)\MICROSOFT VISUAL STUDIO 12.0\VC\INCLUDE\AMMINTRIN.H
C:\PROGRAM FILES (X86)\MICROSOFT VISUAL STUDIO 12.0\VC\INCLUDE\MM3DNOW.H
C:\USERS\40168970\DOWNLOADS\COMPUTERGRAPHICSSET08116\COMPUTER GRAPHICS\INCLUDE\GLM\GTC\MATRIX_TRANSFORM.HPP
C:\USERS\40168970\DOWNLOADS\COMPUTERGRAPHICSSET08116\COMPUTER GRAPHICS\INCLUDE\GLM\GTC\MATRIX_TRANSFORM.INL
C:\USERS\40168970\DOWNLOADS\COMPUTERGRAPHICSSET08116\COMPUTER GRAPHICS\INCLUDE\GLM\GTC\QUATERNION.HPP
C:\USERS\40168970\DOWNLOADS\COMPUTERGRAPHICSSET08116\COMPUTER GRAPHICS\INCLUDE\GLM\GTC\CONSTANTS.HPP
C:\USERS\40168970\DOWNLOADS\COMPUTERGRAPHICSSET08116\COMPUTER GRAPHICS\INCLUDE\GLM\GTC\CONSTANTS.INL
C:\USERS\40168970\DOWNLOADS\COMPUTERGRAPHICSSET08116\COMPUTER GRAPHICS\INCLUDE\GLM\GTC\QUATERNION.INL
C:\USERS\40168970\DOWNLOADS\COMPUTERGRAPHICSSET08116\COMPUTER GRAPHICS\INCLUDE\GLM\GTX\QUATERNION.HPP
C:\USERS\40168970\DOWNLOADS\COMPUTERGRAPHICSSET08116\COMPUTER GRAPHICS\INCLUDE\GLM\GTX\NORM.HPP
C:\USERS\40168970\DOWNLOADS\COMPUTERGRAPHICSSET08116\COMPUTER GRAPHICS\INCLUDE\GLM\GTX\NORM.INL
C:\USERS\40168970\DOWNLOADS\COMPUTERGRAPHICSSET08116\COMPUTER GRAPHICS\INCLUDE\GLM\GTX\QUATERNION.INL
C:\USERS\40168970\DOWNLOADS\COMPUTERGRAPHICSSET08116\COMPUTER GRAPHICS\INCLUDE\GLM\GTX\EULER_ANGLES.HPP
C:\USERS\40168970\DOWNLOADS\COMPUTERGRAPHICSSET08116\COMPUTER GRAPHICS\INCLUDE\GLM\GTX\EULER_ANGLES.INL
C:\USERS\40168970\DOWNLOADS\COMPUTERGRAPHICSSET08116\COMPUTER GRAPHICS\INCLUDE\GLM\GTC\TYPE_PTR.HPP
C:\PROGRAM FILES (X86)\MICROSOFT VISUAL STUDIO 12.0\VC\INCLUDE\CSTRING
C:\PROGRAM FILES (X86)\MICROSOFT VISUAL STUDIO 12.0\VC\INCLUDE\STRING.H
C:\USERS\40168970\DOWNLOADS\COMPUTERGRAPHICSSET08116\COMPUTER GRAPHICS\INCLUDE\GLM\GTC\TYPE_PTR.INL
C:\USERS\40168970\DOWNLOADS\COMPUTERGRAPHICSSET08116\COMPUTER GRAPHICS\INCLUDE\GL\GLEW.H
C:\PROGRAM FILES (X86)\WINDOWS KITS\8.1\INCLUDE\UM\GL\GLU.H
C:\PROGRAM FILES (X86)\WINDOWS KITS\8.1\INCLUDE\SHARED\WINAPIFAMILY.H
C:\PROGRAM FILES (X86)\WINDOWS KITS\8.1\INCLUDE\UM\GL\GL.H
C:\USERS\40168970\DOWNLOADS\COMPUTERGRAPHICSSET08116\COMPUTER GRAPHICS\INCLUDE\GLFW\GLFW3.H
C:\USERS\40168970\DOWNLOADS\COMPUTERGRAPHICSSET08116\COMPUTER GRAPHICS\INCLUDE\ASSIMP\IMPORTER.HPP
C:\USERS\40168970\DOWNLOADS\COMPUTERGRAPHICSSET08116\COMPUTER GRAPHICS\INCLUDE\ASSIMP\TYPES.H
C:\PROGRAM FILES (X86)\MICROSOFT VISUAL STUDIO 12.0\VC\INCLUDE\SYS\TYPES.H
C:\PROGRAM FILES (X86)\MICROSOFT VISUAL STUDIO 12.0\VC\INCLUDE\MEMORY.H
C:\USERS\40168970\DOWNLOADS\COMPUTERGRAPHICSSET08116\COMPUTER GRAPHICS\INCLUDE\ASSIMP\DEFS.H
C:\USERS\40168970\DOWNLOADS\COMPUTERGRAPHICSSET08116\COMPUTER GRAPHICS\INCLUDE\ASSIMP\VECTOR3.H
C:\USERS\40168970\DOWNLOADS\COMPUTERGRAPHICSSET08116\COMPUTER GRAPHICS\INCLUDE\ASSIMP\COMPILER\PUSHPACK1.H
C:\USERS\40168970\DOWNLOADS\COMPUTERGRAPHICSSET08116\COMPUTER GRAPHICS\INCLUDE\ASSIMP\COMPILER\POPPACK1.H
C:\USERS\40168970\DOWNLOADS\COMPUTERGRAPHICSSET08116\COMPUTER GRAPHICS\INCLUDE\ASSIMP\VECTOR2.H
C:\USERS\40168970\DOWNLOADS\COMPUTERGRAPHICSSET08116\COMPUTER GRAPHICS\INCLUDE\ASSIMP\COLOR4.H
C:\USERS\40168970\DOWNLOADS\COMPUTERGRAPHICSSET08116\COMPUTER GRAPHICS\INCLUDE\ASSIMP\MATRIX3X3.H
C:\USERS\40168970\DOWNLOADS\COMPUTERGRAPHICSSET08116\COMPUTER GRAPHICS\INCLUDE\ASSIMP\MATRIX4X4.H
C:\USERS\40168970\DOWNLOADS\COMPUTERGRAPHICSSET08116\COMPUTER GRAPHICS\INCLUDE\ASSIMP\QUATERNION.H
C:\PROGRAM FILES (X86)\MICROSOFT VISUAL STUDIO 12.0\VC\INCLUDE\NEW
C:\PROGRAM FILES (X86)\MICROSOFT VISUAL STUDIO 12.0\VC\INCLUDE\EXCEPTION
C:\PROGRAM FILES (X86)\MICROSOFT VISUAL STUDIO 12.0\VC\INCLUDE\EH.H
C:\PROGRAM FILES (X86)\MICROSOFT VISUAL STUDIO 12.0\VC\INCLUDE\STRING
C:\PROGRAM FILES (X86)\MICROSOFT VISUAL STUDIO 12.0\VC\INCLUDE\ITERATOR
C:\PROGRAM FILES (X86)\MICROSOFT VISUAL STUDIO 12.0\VC\INCLUDE\ISTREAM
C:\PROGRAM FILES (X86)\MICROSOFT VISUAL STUDIO 12.0\VC\INCLUDE\OSTREAM
C:\PROGRAM FILES (X86)\MICROSOFT VISUAL STUDIO 12.0\VC\INCLUDE\IOS
C:\PROGRAM FILES (X86)\MICROSOFT VISUAL STUDIO 12.0\VC\INCLUDE\XLOCNUM
C:\PROGRAM FILES (X86)\MICROSOFT VISUAL STUDIO 12.0\VC\INCLUDE\CSTDIO
C:\PROGRAM FILES (X86)\MICROSOFT VISUAL STUDIO 12.0\VC\INCLUDE\STDIO.H
C:\PROGRAM FILES (X86)\MICROSOFT VISUAL STUDIO 12.0\VC\INCLUDE\CSTDLIB
C:\PROGRAM FILES (X86)\MICROSOFT VISUAL STUDIO 12.0\VC\INCLUDE\STREAMBUF
C:\PROGRAM FILES (X86)\MICROSOFT VISUAL STUDIO 12.0\VC\INCLUDE\XIOSBASE
C:\PROGRAM FILES (X86)\MICROSOFT VISUAL STUDIO 12.0\VC\INCLUDE\XLOCALE
C:\PROGRAM FILES (X86)\MICROSOFT VISUAL STUDIO 12.0\VC\INCLUDE\STDEXCEPT
C:\PROGRAM FILES (X86)\MICROSOFT VISUAL STUDIO 12.0\VC\INCLUDE\XSTRING
C:\PROGRAM FILES (X86)\MICROSOFT VISUAL STUDIO 12.0\VC\INCLUDE\XMEMORY0
C:\PROGRAM FILES (X86)\MICROSOFT VISUAL STUDIO 12.0\VC\INCLUDE\XUTILITY
C:\PROGRAM FILES (X86)\MICROSOFT VISUAL STUDIO 12.0\VC\INCLUDE\UTILITY
C:\PROGRAM FILES (X86)\MICROSOFT VISUAL STUDIO 12.0\VC\INCLUDE\IOSFWD
C:\PROGRAM FILES (X86)\MICROSOFT VISUAL STUDIO 12.0\VC\INCLUDE\CRTDBG.H
C:\PROGRAM FILES (X86)\MICROSOFT VISUAL STUDIO 12.0\VC\INCLUDE\TYPE_TRAITS
C:\PROGRAM FILES (X86)\MICROSOFT VISUAL STUDIO 12.0\VC\INCLUDE\XREFWRAP
C:\PROGRAM FILES (X86)\MICROSOFT VISUAL STUDIO 12.0\VC\INCLUDE\XATOMIC0.H
C:\PROGRAM FILES (X86)\MICROSOFT VISUAL STUDIO 12.0\VC\INCLUDE\TYPEINFO
C:\PROGRAM FILES (X86)\MICROSOFT VISUAL STUDIO 12.0\VC\INCLUDE\XLOCINFO
C:\PROGRAM FILES (X86)\MICROSOFT VISUAL STUDIO 12.0\VC\INCLUDE\XLOCINFO.H
C:\PROGRAM FILES (X86)\MICROSOFT VISUAL STUDIO 12.0\VC\INCLUDE\CTYPE.H
C:\PROGRAM FILES (X86)\MICROSOFT VISUAL STUDIO 12.0\VC\INCLUDE\LOCALE.H
C:\PROGRAM FILES (X86)\MICROSOFT VISUAL STUDIO 12.0\VC\INCLUDE\XDEBUG
C:\PROGRAM FILES (X86)\MICROSOFT VISUAL STUDIO 12.0\VC\INCLUDE\XMEMORY
C:\PROGRAM FILES (X86)\MICROSOFT VISUAL STUDIO 12.0\VC\INCLUDE\XFACET
C:\PROGRAM FILES (X86)\MICROSOFT VISUAL STUDIO 12.0\VC\INCLUDE\SYSTEM_ERROR
C:\PROGRAM FILES (X86)\MICROSOFT VISUAL STUDIO 12.0\VC\INCLUDE\CERRNO
C:\PROGRAM FILES (X86)\MICROSOFT VISUAL STUDIO 12.0\VC\INCLUDE\ERRNO.H
C:\PROGRAM FILES (X86)\MICROSOFT VISUAL STUDIO 12.0\VC\INCLUDE\SHARE.H
C:\USERS\40168970\DOWNLOADS\COMPUTERGRAPHICSSET08116\COMPUTER GRAPHICS\INCLUDE\ASSIMP\VECTOR2.INL
C:\USERS\40168970\DOWNLOADS\COMPUTERGRAPHICSSET08116\COMPUTER GRAPHICS\INCLUDE\ASSIMP\VECTOR3.INL
C:\USERS\40168970\DOWNLOADS\COMPUTERGRAPHICSSET08116\COMPUTER GRAPHICS\INCLUDE\ASSIMP\COLOR4.INL
C:\USERS\40168970\DOWNLOADS\COMPUTERGRAPHICSSET08116\COMPUTER GRAPHICS\INCLUDE\ASSIMP\QUATERNION.INL
C:\USERS\40168970\DOWNLOADS\COMPUTERGRAPHICSSET08116\COMPUTER GRAPHICS\INCLUDE\ASSIMP\MATRIX3X3.INL
C:\PROGRAM FILES (X86)\MICROSOFT VISUAL STUDIO 12.0\VC\INCLUDE\ALGORITHM
C:\USERS\40168970\DOWNLOADS\COMPUTERGRAPHICSSET08116\COMPUTER GRAPHICS\INCLUDE\ASSIMP\MATRIX4X4.INL
C:\USERS\40168970\DOWNLOADS\COMPUTERGRAPHICSSET08116\COMPUTER GRAPHICS\INCLUDE\ASSIMP\CONFIG.H
C:\USERS\40168970\DOWNLOADS\COMPUTERGRAPHICSSET08116\COMPUTER GRAPHICS\INCLUDE\ASSIMP\SCENE.H
C:\USERS\40168970\DOWNLOADS\COMPUTERGRAPHICSSET08116\COMPUTER GRAPHICS\INCLUDE\ASSIMP\TEXTURE.H
C:\USERS\40168970\DOWNLOADS\COMPUTERGRAPHICSSET08116\COMPUTER GRAPHICS\INCLUDE\ASSIMP\MESH.H
C:\USERS\40168970\DOWNLOADS\COMPUTERGRAPHICSSET08116\COMPUTER GRAPHICS\INCLUDE\ASSIMP\LIGHT.H
C:\USERS\40168970\DOWNLOADS\COMPUTERGRAPHICSSET08116\COMPUTER GRAPHICS\INCLUDE\ASSIMP\CAMERA.H
C:\USERS\40168970\DOWNLOADS\COMPUTERGRAPHICSSET08116\COMPUTER GRAPHICS\INCLUDE\ASSIMP\MATERIAL.H
C:\USERS\40168970\DOWNLOADS\COMPUTERGRAPHICSSET08116\COMPUTER GRAPHICS\INCLUDE\ASSIMP\MATERIAL.INL
C:\USERS\40168970\DOWNLOADS\COMPUTERGRAPHICSSET08116\COMPUTER GRAPHICS\INCLUDE\ASSIMP\ANIM.H
C:\USERS\40168970\DOWNLOADS\COMPUTERGRAPHICSSET08116\COMPUTER GRAPHICS\INCLUDE\ASSIMP\POSTPROCESS.H
C:\PROGRAM FILES (X86)\MICROSOFT VISUAL STUDIO 12.0\VC\INCLUDE\IOSTREAM
C:\PROGRAM FILES (X86)\MICROSOFT VISUAL STUDIO 12.0\VC\INCLUDE\FSTREAM
C:\PROGRAM FILES (X86)\MICROSOFT VISUAL STUDIO 12.0\VC\INCLUDE\SSTREAM
C:\PROGRAM FILES (X86)\MICROSOFT VISUAL STUDIO 12.0\VC\INCLUDE\ARRAY
C:\PROGRAM FILES (X86)\MICROSOFT VISUAL STUDIO 12.0\VC\INCLUDE\TUPLE
C:\PROGRAM FILES (X86)\MICROSOFT VISUAL STUDIO 12.0\VC\INCLUDE\VECTOR
C:\PROGRAM FILES (X86)\MICROSOFT VISUAL STUDIO 12.0\VC\INCLUDE\CHRONO
C:\PROGRAM FILES (X86)\MICROSOFT VISUAL STUDIO 12.0\VC\INCLUDE\RATIO
C:\PROGRAM FILES (X86)\MICROSOFT VISUAL STUDIO 12.0\VC\INCLUDE\TIME.H
C:\PROGRAM FILES (X86)\MICROSOFT VISUAL STUDIO 12.0\VC\INCLUDE\TIME.INL
C:\PROGRAM FILES (X86)\MICROSOFT VISUAL STUDIO 12.0\VC\INCLUDE\THR\XTIMEC.H
C:\PROGRAM FILES (X86)\MICROSOFT VISUAL STUDIO 12.0\VC\INCLUDE\THR\XTHRCOMMON.H
C:\PROGRAM FILES (X86)\MICROSOFT VISUAL STUDIO 12.0\VC\INCLUDE\MEMORY
C:\PROGRAM FILES (X86)\MICROSOFT VISUAL STUDIO 12.0\VC\INCLUDE\MAP
C:\PROGRAM FILES (X86)\MICROSOFT VISUAL STUDIO 12.0\VC\INCLUDE\XTREE
C:\PROGRAM FILES (X86)\MICROSOFT VISUAL STUDIO 12.0\VC\INCLUDE\RANDOM
C:\PROGRAM FILES (X86)\MICROSOFT VISUAL STUDIO 12.0\VC\INCLUDE\FUNCTIONAL
C:\PROGRAM FILES (X86)\MICROSOFT VISUAL STUDIO 12.0\VC\INCLUDE\XFUNCTIONAL
C:\USERS\40168970\DOWNLOADS\COMPUTERGRAPHICSSET08116\COMPUTER GRAPHICS\LIBENUGRAPHICS\GEOMETRY.H
C:\USERS\40168970\DOWNLOADS\COMPUTERGRAPHICSSET08116\COMPUTER GRAPHICS\LIBENUGRAPHICS\MESH.H
C:\USERS\40168970\DOWNLOADS\COMPUTERGRAPHICSSET08116\COMPUTER GRAPHICS\LIBENUGRAPHICS\TRANSFORM.H
C:\USERS\40168970\DOWNLOADS\COMPUTERGRAPHICSSET08116\COMPUTER GRAPHICS\LIBENUGRAPHICS\MATERIAL.H
C:\USERS\40168970\DOWNLOADS\COMPUTERGRAPHICSSET08116\COMPUTER GRAPHICS\LIBENUGRAPHICS\EFFECT.H
C:\USERS\40168970\DOWNLOADS\COMPUTERGRAPHICSSET08116\COMPUTER GRAPHICS\LIBENUGRAPHICS\TEXTURE.H
C:\USERS\40168970\DOWNLOADS\COMPUTERGRAPHICSSET08116\COMPUTER GRAPHICS\LIBENUGRAPHICS\DIRECTIONAL_LIGHT.H
C:\USERS\40168970\DOWNLOADS\COMPUTERGRAPHICSSET08116\COMPUTER GRAPHICS\LIBENUGRAPHICS\POINT_LIGHT.H
C:\USERS\40168970\DOWNLOADS\COMPUTERGRAPHICSSET08116\COMPUTER GRAPHICS\LIBENUGRAPHICS\SPOT_LIGHT.H
C:\USERS\40168970\DOWNLOADS\COMPUTERGRAPHICSSET08116\COMPUTER GRAPHICS\LIBENUGRAPHICS\APP.H
C:\USERS\40168970\DOWNLOADS\COMPUTERGRAPHICSSET08116\COMPUTER GRAPHICS\LIBENUGRAPHICS\GEOMETRY_BUILDER.H
C:\USERS\40168970\DOWNLOADS\COMPUTERGRAPHICSSET08116\COMPUTER GRAPHICS\LIBENUGRAPHICS\TERRAIN.H
C:\USERS\40168970\DOWNLOADS\COMPUTERGRAPHICSSET08116\COMPUTER GRAPHICS\LIBENUGRAPHICS\CUBEMAP.H
C:\USERS\40168970\DOWNLOADS\COMPUTERGRAPHICSSET08116\COMPUTER GRAPHICS\LIBENUGRAPHICS\FRAME_BUFFER.H
C:\USERS\40168970\DOWNLOADS\COMPUTERGRAPHICSSET08116\COMPUTER GRAPHICS\LIBENUGRAPHICS\DEPTH_BUFFER.H
C:\USERS\40168970\DOWNLOADS\COMPUTERGRAPHICSSET08116\COMPUTER GRAPHICS\LIBENUGRAPHICS\SHADOW_MAP.H
C:\USERS\40168970\DOWNLOADS\COMPUTERGRAPHICSSET08116\COMPUTER GRAPHICS\LIBENUGRAPHICS\CAMERA.H
C:\USERS\40168970\DOWNLOADS\COMPUTERGRAPHICSSET08116\COMPUTER GRAPHICS\LIBENUGRAPHICS\TARGET_CAMERA.H
C:\USERS\40168970\DOWNLOADS\COMPUTERGRAPHICSSET08116\COMPUTER GRAPHICS\LIBENUGRAPHICS\FREE_CAMERA.H
C:\USERS\40168970\DOWNLOADS\COMPUTERGRAPHICSSET08116\COMPUTER GRAPHICS\LIBENUGRAPHICS\CHASE_CAMERA.H
C:\USERS\40168970\DOWNLOADS\COMPUTERGRAPHICSSET08116\COMPUTER GRAPHICS\LIBENUGRAPHICS\ARC_BALL_CAMERA.H
C:\USERS\40168970\DOWNLOADS\COMPUTERGRAPHICSSET08116\COMPUTER GRAPHICS\LIBENUGRAPHICS\UTIL.H
^C:\USERS\MANOS\DESKTOP\COMPUTER-GRAPHICS\008 RENDERING A QUAD 6\MAIN.CPP
C:\PROGRAM FILES (X86)\MICROSOFT VISUAL STUDIO 12.0\VC\BIN\1033\CLUI.DLL
C:\WINDOWS\GLOBALIZATION\SORTING\SORTDEFAULT.NLS
C:\WINDOWS\SYSTEM32\TZRES.DLL
C:\USERS\MANOS\DESKTOP\COMPUTER-GRAPHICS\LIBENUGRAPHICS\GRAPHICS_FRAMEWORK.H
C:\USERS\MANOS\DESKTOP\COMPUTER-GRAPHICS\LIBENUGRAPHICS\RENDERER.H
C:\USERS\MANOS\DESKTOP\COMPUTER-GRAPHICS\LIBENUGRAPHICS\STDAFX.H
C:\USERS\MANOS\DESKTOP\COMPUTER-GRAPHICS\LIBENUGRAPHICS\TARGETVER.H
C:\PROGRAM FILES (X86)\WINDOWS KITS\8.1\INCLUDE\SHARED\SDKDDKVER.H
C:\USERS\MANOS\DESKTOP\COMPUTER-GRAPHICS\INCLUDE\GLM\GLM.HPP
C:\USERS\MANOS\DESKTOP\COMPUTER-GRAPHICS\INCLUDE\GLM\DETAIL\_FIXES.HPP
C:\PROGRAM FILES (X86)\MICROSOFT VISUAL STUDIO 12.0\VC\INCLUDE\CMATH
C:\PROGRAM FILES (X86)\MICROSOFT VISUAL STUDIO 12.0\VC\INCLUDE\YVALS.H
C:\PROGRAM FILES (X86)\MICROSOFT VISUAL STUDIO 12.0\VC\INCLUDE\XKEYCHECK.H
C:\PROGRAM FILES (X86)\MICROSOFT VISUAL STUDIO 12.0\VC\INCLUDE\CRTDEFS.H
C:\PROGRAM FILES (X86)\MICROSOFT VISUAL STUDIO 12.0\VC\INCLUDE\SAL.H
C:\PROGRAM FILES (X86)\MICROSOFT VISUAL STUDIO 12.0\VC\INCLUDE\CONCURRENCYSAL.H
C:\PROGRAM FILES (X86)\MICROSOFT VISUAL STUDIO 12.0\VC\INCLUDE\VADEFS.H
C:\PROGRAM FILES (X86)\MICROSOFT VISUAL STUDIO 12.0\VC\INCLUDE\USE_ANSI.H
C:\PROGRAM FILES (X86)\MICROSOFT VISUAL STUDIO 12.0\VC\INCLUDE\MATH.H
C:\PROGRAM FILES (X86)\MICROSOFT VISUAL STUDIO 12.0\VC\INCLUDE\XTGMATH.H
C:\PROGRAM FILES (X86)\MICROSOFT VISUAL STUDIO 12.0\VC\INCLUDE\XTR1COMMON
C:\PROGRAM FILES (X86)\MICROSOFT VISUAL STUDIO 12.0\VC\INCLUDE\CLIMITS
C:\PROGRAM FILES (X86)\MICROSOFT VISUAL STUDIO 12.0\VC\INCLUDE\LIMITS.H
C:\PROGRAM FILES (X86)\MICROSOFT VISUAL STUDIO 12.0\VC\INCLUDE\CFLOAT
C:\PROGRAM FILES (X86)\MICROSOFT VISUAL STUDIO 12.0\VC\INCLUDE\FLOAT.H
C:\PROGRAM FILES (X86)\MICROSOFT VISUAL STUDIO 12.0\VC\INCLUDE\CRTWRN.H
C:\PROGRAM FILES (X86)\MICROSOFT VISUAL STUDIO 12.0\VC\INCLUDE\LIMITS
C:\PROGRAM FILES (X86)\MICROSOFT VISUAL STUDIO 12.0\VC\INCLUDE\YMATH.H
C:\PROGRAM FILES (X86)\MICROSOFT VISUAL STUDIO 12.0\VC\INCLUDE\CWCHAR
C:\PROGRAM FILES (X86)\MICROSOFT VISUAL STUDIO 12.0\VC\INCLUDE\WCHAR.H
C:\PROGRAM FILES (X86)\MICROSOFT VISUAL STUDIO 12.0\VC\INCLUDE\SWPRINTF.INL
C:\PROGRAM FILES (X86)\MICROSOFT VISUAL STUDIO 12.0\VC\INCLUDE\WTIME.INL
C:\PROGRAM FILES (X86)\MICROSOFT VISUAL STUDIO 12.0\VC\INCLUDE\XSTDDEF
C:\PROGRAM FILES (X86)\MICROSOFT VISUAL STUDIO 12.0\VC\INCLUDE\STDLIB.H
C:\PROGRAM FILES (X86)\MICROSOFT VISUAL STUDIO 12.0\VC\INCLUDE\CSTDDEF
C:\PROGRAM FILES (X86)\MICROSOFT VISUAL STUDIO 12.0\VC\INCLUDE\STDDEF.H
C:\PROGRAM FILES (X86)\MICROSOFT VISUAL STUDIO 12.0\VC\INCLUDE\INITIALIZER_LIST
C:\PROGRAM FILES (X86)\MICROSOFT VISUAL STUDIO 12.0\VC\INCLUDE\CASSERT
C:\PROGRAM FILES (X86)\MICROSOFT VISUAL STUDIO 12.0\VC\INCLUDE\ASSERT.H
C:\USERS\MANOS\DESKTOP\COMPUTER-GRAPHICS\INCLUDE\GLM\FWD.HPP
C:\USERS\MANOS\DESKTOP\COMPUTER-GRAPHICS\INCLUDE\GLM\DETAIL\TYPE_INT.HPP
C:\USERS\MANOS\DESKTOP\COMPUTER-GRAPHICS\INCLUDE\GLM\DETAIL\SETUP.HPP
C:\PROGRAM FILES (X86)\MICROSOFT VISUAL STUDIO 12.0\VC\INCLUDE\IMMINTRIN.H
C:\PROGRAM FILES (X86)\MICROSOFT VISUAL STUDIO 12.0\VC\INCLUDE\WMMINTRIN.H
C:\PROGRAM FILES (X86)\MICROSOFT VISUAL STUDIO 12.0\VC\INCLUDE\NMMINTRIN.H
C:\PROGRAM FILES (X86)\MICROSOFT VISUAL STUDIO 12.0\VC\INCLUDE\SMMINTRIN.H
C:\PROGRAM FILES (X86)\MICROSOFT VISUAL STUDIO 12.0\VC\INCLUDE\TMMINTRIN.H
C:\PROGRAM FILES (X86)\MICROSOFT VISUAL STUDIO 12.0\VC\INCLUDE\PMMINTRIN.H
C:\PROGRAM FILES (X86)\MICROSOFT VISUAL STUDIO 12.0\VC\INCLUDE\EMMINTRIN.H
C:\PROGRAM FILES (X86)\MICROSOFT VISUAL STUDIO 12.0\VC\INCLUDE\XMMINTRIN.H
C:\PROGRAM FILES (X86)\MICROSOFT VISUAL STUDIO 12.0\VC\INCLUDE\MMINTRIN.H
C:\PROGRAM FILES (X86)\MICROSOFT VISUAL STUDIO 12.0\VC\INCLUDE\MALLOC.H
C:\PROGRAM FILES (X86)\MICROSOFT VISUAL STUDIO 12.0\VC\INCLUDE\CSTDINT
C:\PROGRAM FILES (X86)\MICROSOFT VISUAL STUDIO 12.0\VC\INCLUDE\STDINT.H
C:\USERS\MANOS\DESKTOP\COMPUTER-GRAPHICS\INCLUDE\GLM\DETAIL\TYPE_FLOAT.HPP
C:\USERS\MANOS\DESKTOP\COMPUTER-GRAPHICS\INCLUDE\GLM\DETAIL\TYPE_VEC.HPP
C:\USERS\MANOS\DESKTOP\COMPUTER-GRAPHICS\INCLUDE\GLM\DETAIL\PRECISION.HPP
C:\USERS\MANOS\DESKTOP\COMPUTER-GRAPHICS\INCLUDE\GLM\DETAIL\TYPE_MAT.HPP
C:\USERS\MANOS\DESKTOP\COMPUTER-GRAPHICS\INCLUDE\GLM\VEC2.HPP
C:\USERS\MANOS\DESKTOP\COMPUTER-GRAPHICS\INCLUDE\GLM\DETAIL\TYPE_VEC2.HPP
C:\USERS\MANOS\DESKTOP\COMPUTER-GRAPHICS\INCLUDE\GLM\DETAIL\TYPE_VEC2.INL
C:\USERS\MANOS\DESKTOP\COMPUTER-GRAPHICS\INCLUDE\GLM\VEC3.HPP
C:\USERS\MANOS\DESKTOP\COMPUTER-GRAPHICS\INCLUDE\GLM\DETAIL\TYPE_VEC3.HPP
C:\USERS\MANOS\DESKTOP\COMPUTER-GRAPHICS\INCLUDE\GLM\DETAIL\TYPE_VEC3.INL
C:\USERS\MANOS\DESKTOP\COMPUTER-GRAPHICS\INCLUDE\GLM\VEC4.HPP
C:\USERS\MANOS\DESKTOP\COMPUTER-GRAPHICS\INCLUDE\GLM\DETAIL\TYPE_VEC4.HPP
C:\USERS\MANOS\DESKTOP\COMPUTER-GRAPHICS\INCLUDE\GLM\DETAIL\TYPE_VEC4.INL
C:\USERS\MANOS\DESKTOP\COMPUTER-GRAPHICS\INCLUDE\GLM\MAT2X2.HPP
C:\USERS\MANOS\DESKTOP\COMPUTER-GRAPHICS\INCLUDE\GLM\DETAIL\TYPE_MAT2X2.HPP
C:\USERS\MANOS\DESKTOP\COMPUTER-GRAPHICS\INCLUDE\GLM\DETAIL\TYPE_MAT2X2.INL
C:\USERS\MANOS\DESKTOP\COMPUTER-GRAPHICS\INCLUDE\GLM\MAT2X3.HPP
C:\USERS\MANOS\DESKTOP\COMPUTER-GRAPHICS\INCLUDE\GLM\DETAIL\TYPE_MAT2X3.HPP
C:\USERS\MANOS\DESKTOP\COMPUTER-GRAPHICS\INCLUDE\GLM\DETAIL\TYPE_MAT2X3.INL
C:\USERS\MANOS\DESKTOP\COMPUTER-GRAPHICS\INCLUDE\GLM\MAT2X4.HPP
C:\USERS\MANOS\DESKTOP\COMPUTER-GRAPHICS\INCLUDE\GLM\DETAIL\TYPE_MAT2X4.HPP
C:\USERS\MANOS\DESKTOP\COMPUTER-GRAPHICS\INCLUDE\GLM\DETAIL\TYPE_MAT2X4.INL
C:\USERS\MANOS\DESKTOP\COMPUTER-GRAPHICS\INCLUDE\GLM\MAT3X2.HPP
C:\USERS\MANOS\DESKTOP\COMPUTER-GRAPHICS\INCLUDE\GLM\DETAIL\TYPE_MAT3X2.HPP
C:\USERS\MANOS\DESKTOP\COMPUTER-GRAPHICS\INCLUDE\GLM\DETAIL\TYPE_MAT3X2.INL
C:\USERS\MANOS\DESKTOP\COMPUTER-GRAPHICS\INCLUDE\GLM\MAT3X3.HPP
C:\USERS\MANOS\DESKTOP\COMPUTER-GRAPHICS\INCLUDE\GLM\DETAIL\TYPE_MAT3X3.HPP
C:\USERS\MANOS\DESKTOP\COMPUTER-GRAPHICS\INCLUDE\GLM\DETAIL\TYPE_MAT3X3.INL
C:\USERS\MANOS\DESKTOP\COMPUTER-GRAPHICS\INCLUDE\GLM\MAT3X4.HPP
C:\USERS\MANOS\DESKTOP\COMPUTER-GRAPHICS\INCLUDE\GLM\DETAIL\TYPE_MAT3X4.HPP
C:\USERS\MANOS\DESKTOP\COMPUTER-GRAPHICS\INCLUDE\GLM\DETAIL\TYPE_MAT3X4.INL
C:\USERS\MANOS\DESKTOP\COMPUTER-GRAPHICS\INCLUDE\GLM\MAT4X2.HPP
C:\USERS\MANOS\DESKTOP\COMPUTER-GRAPHICS\INCLUDE\GLM\DETAIL\TYPE_MAT4X2.HPP
C:\USERS\MANOS\DESKTOP\COMPUTER-GRAPHICS\INCLUDE\GLM\DETAIL\TYPE_MAT4X2.INL
C:\USERS\MANOS\DESKTOP\COMPUTER-GRAPHICS\INCLUDE\GLM\MAT4X3.HPP
C:\USERS\MANOS\DESKTOP\COMPUTER-GRAPHICS\INCLUDE\GLM\DETAIL\TYPE_MAT4X3.HPP
C:\USERS\MANOS\DESKTOP\COMPUTER-GRAPHICS\INCLUDE\GLM\DETAIL\TYPE_MAT4X3.INL
C:\USERS\MANOS\DESKTOP\COMPUTER-GRAPHICS\INCLUDE\GLM\MAT4X4.HPP
C:\USERS\MANOS\DESKTOP\COMPUTER-GRAPHICS\INCLUDE\GLM\DETAIL\TYPE_MAT4X4.HPP
C:\USERS\MANOS\DESKTOP\COMPUTER-GRAPHICS\INCLUDE\GLM\DETAIL\TYPE_MAT4X4.INL
C:\USERS\MANOS\DESKTOP\COMPUTER-GRAPHICS\INCLUDE\GLM\TRIGONOMETRIC.HPP
C:\USERS\MANOS\DESKTOP\COMPUTER-GRAPHICS\INCLUDE\GLM\DETAIL\FUNC_TRIGONOMETRIC.HPP
C:\USERS\MANOS\DESKTOP\COMPUTER-GRAPHICS\INCLUDE\GLM\DETAIL\FUNC_TRIGONOMETRIC.INL
C:\USERS\MANOS\DESKTOP\COMPUTER-GRAPHICS\INCLUDE\GLM\DETAIL\_VECTORIZE.HPP
C:\USERS\MANOS\DESKTOP\COMPUTER-GRAPHICS\INCLUDE\GLM\EXPONENTIAL.HPP
C:\USERS\MANOS\DESKTOP\COMPUTER-GRAPHICS\INCLUDE\GLM\DETAIL\FUNC_EXPONENTIAL.HPP
C:\USERS\MANOS\DESKTOP\COMPUTER-GRAPHICS\INCLUDE\GLM\DETAIL\TYPE_VEC1.HPP
C:\USERS\MANOS\DESKTOP\COMPUTER-GRAPHICS\INCLUDE\GLM\DETAIL\TYPE_VEC1.INL
C:\USERS\MANOS\DESKTOP\COMPUTER-GRAPHICS\INCLUDE\GLM\DETAIL\FUNC_EXPONENTIAL.INL
C:\USERS\MANOS\DESKTOP\COMPUTER-GRAPHICS\INCLUDE\GLM\DETAIL\FUNC_VECTOR_RELATIONAL.HPP
C:\USERS\MANOS\DESKTOP\COMPUTER-GRAPHICS\INCLUDE\GLM\DETAIL\FUNC_VECTOR_RELATIONAL.INL
C:\USERS\MANOS\DESKTOP\COMPUTER-GRAPHICS\INCLUDE\GLM\COMMON.HPP
C:\USERS\MANOS\DESKTOP\COMPUTER-GRAPHICS\INCLUDE\GLM\DETAIL\FUNC_COMMON.HPP
C:\USERS\MANOS\DESKTOP\COMPUTER-GRAPHICS\INCLUDE\GLM\DETAIL\FUNC_COMMON.INL
C:\USERS\MANOS\DESKTOP\COMPUTER-GRAPHICS\INCLUDE\GLM\PACKING.HPP
C:\USERS\MANOS\DESKTOP\COMPUTER-GRAPHICS\INCLUDE\GLM\DETAIL\FUNC_PACKING.HPP
C:\USERS\MANOS\DESKTOP\COMPUTER-GRAPHICS\INCLUDE\GLM\DETAIL\FUNC_PACKING.INL
C:\USERS\MANOS\DESKTOP\COMPUTER-GRAPHICS\INCLUDE\GLM\DETAIL\TYPE_HALF.HPP
C:\USERS\MANOS\DESKTOP\COMPUTER-GRAPHICS\INCLUDE\GLM\DETAIL\TYPE_HALF.INL
C:\USERS\MANOS\DESKTOP\COMPUTER-GRAPHICS\INCLUDE\GLM\GEOMETRIC.HPP
C:\USERS\MANOS\DESKTOP\COMPUTER-GRAPHICS\INCLUDE\GLM\DETAIL\FUNC_GEOMETRIC.HPP
C:\USERS\MANOS\DESKTOP\COMPUTER-GRAPHICS\INCLUDE\GLM\DETAIL\FUNC_GEOMETRIC.INL
C:\USERS\MANOS\DESKTOP\COMPUTER-GRAPHICS\INCLUDE\GLM\MATRIX.HPP
C:\USERS\MANOS\DESKTOP\COMPUTER-GRAPHICS\INCLUDE\GLM\DETAIL\FUNC_MATRIX.HPP
C:\USERS\MANOS\DESKTOP\COMPUTER-GRAPHICS\INCLUDE\GLM\DETAIL\FUNC_MATRIX.INL
C:\USERS\MANOS\DESKTOP\COMPUTER-GRAPHICS\INCLUDE\GLM\VECTOR_RELATIONAL.HPP
C:\USERS\MANOS\DESKTOP\COMPUTER-GRAPHICS\INCLUDE\GLM\INTEGER.HPP
C:\USERS\MANOS\DESKTOP\COMPUTER-GRAPHICS\INCLUDE\GLM\DETAIL\FUNC_INTEGER.HPP
C:\USERS\MANOS\DESKTOP\COMPUTER-GRAPHICS\INCLUDE\GLM\DETAIL\FUNC_INTEGER.INL
C:\PROGRAM FILES (X86)\MICROSOFT VISUAL STUDIO 12.0\VC\INCLUDE\INTRIN.H
C:\PROGRAM FILES (X86)\MICROSOFT VISUAL STUDIO 12.0\VC\INCLUDE\SETJMP.H
C:\PROGRAM FILES (X86)\MICROSOFT VISUAL STUDIO 12.0\VC\INCLUDE\AMMINTRIN.H
C:\PROGRAM FILES (X86)\MICROSOFT VISUAL STUDIO 12.0\VC\INCLUDE\MM3DNOW.H
C:\USERS\MANOS\DESKTOP\COMPUTER-GRAPHICS\INCLUDE\GLM\GTC\MATRIX_TRANSFORM.HPP
C:\USERS\MANOS\DESKTOP\COMPUTER-GRAPHICS\INCLUDE\GLM\GTC\MATRIX_TRANSFORM.INL
C:\USERS\MANOS\DESKTOP\COMPUTER-GRAPHICS\INCLUDE\GLM\GTC\QUATERNION.HPP
C:\USERS\MANOS\DESKTOP\COMPUTER-GRAPHICS\INCLUDE\GLM\GTC\CONSTANTS.HPP
C:\USERS\MANOS\DESKTOP\COMPUTER-GRAPHICS\INCLUDE\GLM\GTC\CONSTANTS.INL
C:\USERS\MANOS\DESKTOP\COMPUTER-GRAPHICS\INCLUDE\GLM\GTC\QUATERNION.INL
C:\USERS\MANOS\DESKTOP\COMPUTER-GRAPHICS\INCLUDE\GLM\GTX\QUATERNION.HPP
C:\USERS\MANOS\DESKTOP\COMPUTER-GRAPHICS\INCLUDE\GLM\GTX\NORM.HPP
C:\USERS\MANOS\DESKTOP\COMPUTER-GRAPHICS\INCLUDE\GLM\GTX\NORM.INL
C:\USERS\MANOS\DESKTOP\COMPUTER-GRAPHICS\INCLUDE\GLM\GTX\QUATERNION.INL
C:\USERS\MANOS\DESKTOP\COMPUTER-GRAPHICS\INCLUDE\GLM\GTX\EULER_ANGLES.HPP
C:\USERS\MANOS\DESKTOP\COMPUTER-GRAPHICS\INCLUDE\GLM\GTX\EULER_ANGLES.INL
C:\USERS\MANOS\DESKTOP\COMPUTER-GRAPHICS\INCLUDE\GLM\GTC\TYPE_PTR.HPP
C:\PROGRAM FILES (X86)\MICROSOFT VISUAL STUDIO 12.0\VC\INCLUDE\CSTRING
C:\PROGRAM FILES (X86)\MICROSOFT VISUAL STUDIO 12.0\VC\INCLUDE\STRING.H
C:\USERS\MANOS\DESKTOP\COMPUTER-GRAPHICS\INCLUDE\GLM\GTC\TYPE_PTR.INL
C:\USERS\MANOS\DESKTOP\COMPUTER-GRAPHICS\INCLUDE\GL\GLEW.H
C:\PROGRAM FILES (X86)\WINDOWS KITS\8.1\INCLUDE\UM\GL\GLU.H
C:\PROGRAM FILES (X86)\WINDOWS KITS\8.1\INCLUDE\SHARED\WINAPIFAMILY.H
C:\PROGRAM FILES (X86)\WINDOWS KITS\8.1\INCLUDE\UM\GL\GL.H
C:\USERS\MANOS\DESKTOP\COMPUTER-GRAPHICS\INCLUDE\GLFW\GLFW3.H
C:\USERS\MANOS\DESKTOP\COMPUTER-GRAPHICS\INCLUDE\ASSIMP\IMPORTER.HPP
C:\USERS\MANOS\DESKTOP\COMPUTER-GRAPHICS\INCLUDE\ASSIMP\TYPES.H
C:\PROGRAM FILES (X86)\MICROSOFT VISUAL STUDIO 12.0\VC\INCLUDE\SYS\TYPES.H
C:\PROGRAM FILES (X86)\MICROSOFT VISUAL STUDIO 12.0\VC\INCLUDE\MEMORY.H
C:\USERS\MANOS\DESKTOP\COMPUTER-GRAPHICS\INCLUDE\ASSIMP\DEFS.H
C:\USERS\MANOS\DESKTOP\COMPUTER-GRAPHICS\INCLUDE\ASSIMP\VECTOR3.H
C:\USERS\MANOS\DESKTOP\COMPUTER-GRAPHICS\INCLUDE\ASSIMP\COMPILER\PUSHPACK1.H
C:\USERS\MANOS\DESKTOP\COMPUTER-GRAPHICS\INCLUDE\ASSIMP\COMPILER\POPPACK1.H
C:\USERS\MANOS\DESKTOP\COMPUTER-GRAPHICS\INCLUDE\ASSIMP\VECTOR2.H
C:\USERS\MANOS\DESKTOP\COMPUTER-GRAPHICS\INCLUDE\ASSIMP\COLOR4.H
C:\USERS\MANOS\DESKTOP\COMPUTER-GRAPHICS\INCLUDE\ASSIMP\MATRIX3X3.H
C:\USERS\MANOS\DESKTOP\COMPUTER-GRAPHICS\INCLUDE\ASSIMP\MATRIX4X4.H
C:\USERS\MANOS\DESKTOP\COMPUTER-GRAPHICS\INCLUDE\ASSIMP\QUATERNION.H
C:\PROGRAM FILES (X86)\MICROSOFT VISUAL STUDIO 12.0\VC\INCLUDE\NEW
C:\PROGRAM FILES (X86)\MICROSOFT VISUAL STUDIO 12.0\VC\INCLUDE\EXCEPTION
C:\PROGRAM FILES (X86)\MICROSOFT VISUAL STUDIO 12.0\VC\INCLUDE\EH.H
C:\PROGRAM FILES (X86)\MICROSOFT VISUAL STUDIO 12.0\VC\INCLUDE\STRING
C:\PROGRAM FILES (X86)\MICROSOFT VISUAL STUDIO 12.0\VC\INCLUDE\ITERATOR
C:\PROGRAM FILES (X86)\MICROSOFT VISUAL STUDIO 12.0\VC\INCLUDE\ISTREAM
C:\PROGRAM FILES (X86)\MICROSOFT VISUAL STUDIO 12.0\VC\INCLUDE\OSTREAM
C:\PROGRAM FILES (X86)\MICROSOFT VISUAL STUDIO 12.0\VC\INCLUDE\IOS
C:\PROGRAM FILES (X86)\MICROSOFT VISUAL STUDIO 12.0\VC\INCLUDE\XLOCNUM
C:\PROGRAM FILES (X86)\MICROSOFT VISUAL STUDIO 12.0\VC\INCLUDE\CSTDIO
C:\PROGRAM FILES (X86)\MICROSOFT VISUAL STUDIO 12.0\VC\INCLUDE\STDIO.H
C:\PROGRAM FILES (X86)\MICROSOFT VISUAL STUDIO 12.0\VC\INCLUDE\CSTDLIB
C:\PROGRAM FILES (X86)\MICROSOFT VISUAL STUDIO 12.0\VC\INCLUDE\STREAMBUF
C:\PROGRAM FILES (X86)\MICROSOFT VISUAL STUDIO 12.0\VC\INCLUDE\XIOSBASE
C:\PROGRAM FILES (X86)\MICROSOFT VISUAL STUDIO 12.0\VC\INCLUDE\XLOCALE
C:\PROGRAM FILES (X86)\MICROSOFT VISUAL STUDIO 12.0\VC\INCLUDE\STDEXCEPT
C:\PROGRAM FILES (X86)\MICROSOFT VISUAL STUDIO 12.0\VC\INCLUDE\XSTRING
C:\PROGRAM FILES (X86)\MICROSOFT VISUAL STUDIO 12.0\VC\INCLUDE\XMEMORY0
C:\PROGRAM FILES (X86)\MICROSOFT VISUAL STUDIO 12.0\VC\INCLUDE\XUTILITY
C:\PROGRAM FILES (X86)\MICROSOFT VISUAL STUDIO 12.0\VC\INCLUDE\UTILITY
C:\PROGRAM FILES (X86)\MICROSOFT VISUAL STUDIO 12.0\VC\INCLUDE\IOSFWD
C:\PROGRAM FILES (X86)\MICROSOFT VISUAL STUDIO 12.0\VC\INCLUDE\CRTDBG.H
C:\PROGRAM FILES (X86)\MICROSOFT VISUAL STUDIO 12.0\VC\INCLUDE\TYPE_TRAITS
C:\PROGRAM FILES (X86)\MICROSOFT VISUAL STUDIO 12.0\VC\INCLUDE\XREFWRAP
C:\PROGRAM FILES (X86)\MICROSOFT VISUAL STUDIO 12.0\VC\INCLUDE\XATOMIC0.H
C:\PROGRAM FILES (X86)\MICROSOFT VISUAL STUDIO 12.0\VC\INCLUDE\TYPEINFO
C:\PROGRAM FILES (X86)\MICROSOFT VISUAL STUDIO 12.0\VC\INCLUDE\XLOCINFO
C:\PROGRAM FILES (X86)\MICROSOFT VISUAL STUDIO 12.0\VC\INCLUDE\XLOCINFO.H
C:\PROGRAM FILES (X86)\MICROSOFT VISUAL STUDIO 12.0\VC\INCLUDE\CTYPE.H
C:\PROGRAM FILES (X86)\MICROSOFT VISUAL STUDIO 12.0\VC\INCLUDE\LOCALE.H
C:\PROGRAM FILES (X86)\MICROSOFT VISUAL STUDIO 12.0\VC\INCLUDE\XDEBUG
C:\PROGRAM FILES (X86)\MICROSOFT VISUAL STUDIO 12.0\VC\INCLUDE\XMEMORY
C:\PROGRAM FILES (X86)\MICROSOFT VISUAL STUDIO 12.0\VC\INCLUDE\XFACET
C:\PROGRAM FILES (X86)\MICROSOFT VISUAL STUDIO 12.0\VC\INCLUDE\SYSTEM_ERROR
C:\PROGRAM FILES (X86)\MICROSOFT VISUAL STUDIO 12.0\VC\INCLUDE\CERRNO
C:\PROGRAM FILES (X86)\MICROSOFT VISUAL STUDIO 12.0\VC\INCLUDE\ERRNO.H
C:\PROGRAM FILES (X86)\MICROSOFT VISUAL STUDIO 12.0\VC\INCLUDE\SHARE.H
C:\USERS\MANOS\DESKTOP\COMPUTER-GRAPHICS\INCLUDE\ASSIMP\VECTOR2.INL
C:\USERS\MANOS\DESKTOP\COMPUTER-GRAPHICS\INCLUDE\ASSIMP\VECTOR3.INL
C:\USERS\MANOS\DESKTOP\COMPUTER-GRAPHICS\INCLUDE\ASSIMP\COLOR4.INL
C:\USERS\MANOS\DESKTOP\COMPUTER-GRAPHICS\INCLUDE\ASSIMP\QUATERNION.INL
C:\USERS\MANOS\DESKTOP\COMPUTER-GRAPHICS\INCLUDE\ASSIMP\MATRIX3X3.INL
C:\PROGRAM FILES (X86)\MICROSOFT VISUAL STUDIO 12.0\VC\INCLUDE\ALGORITHM
C:\USERS\MANOS\DESKTOP\COMPUTER-GRAPHICS\INCLUDE\ASSIMP\MATRIX4X4.INL
C:\USERS\MANOS\DESKTOP\COMPUTER-GRAPHICS\INCLUDE\ASSIMP\CONFIG.H
C:\USERS\MANOS\DESKTOP\COMPUTER-GRAPHICS\INCLUDE\ASSIMP\SCENE.H
C:\USERS\MANOS\DESKTOP\COMPUTER-GRAPHICS\INCLUDE\ASSIMP\TEXTURE.H
C:\USERS\MANOS\DESKTOP\COMPUTER-GRAPHICS\INCLUDE\ASSIMP\MESH.H
C:\USERS\MANOS\DESKTOP\COMPUTER-GRAPHICS\INCLUDE\ASSIMP\LIGHT.H
C:\USERS\MANOS\DESKTOP\COMPUTER-GRAPHICS\INCLUDE\ASSIMP\CAMERA.H
C:\USERS\MANOS\DESKTOP\COMPUTER-GRAPHICS\INCLUDE\ASSIMP\MATERIAL.H
C:\USERS\MANOS\DESKTOP\COMPUTER-GRAPHICS\INCLUDE\ASSIMP\MATERIAL.INL
C:\USERS\MANOS\DESKTOP\COMPUTER-GRAPHICS\INCLUDE\ASSIMP\ANIM.H
C:\USERS\MANOS\DESKTOP\COMPUTER-GRAPHICS\INCLUDE\ASSIMP\POSTPROCESS.H
C:\PROGRAM FILES (X86)\MICROSOFT VISUAL STUDIO 12.0\VC\INCLUDE\IOSTREAM
C:\PROGRAM FILES (X86)\MICROSOFT VISUAL STUDIO 12.0\VC\INCLUDE\FSTREAM
C:\PROGRAM FILES (X86)\MICROSOFT VISUAL STUDIO 12.0\VC\INCLUDE\SSTREAM
C:\PROGRAM FILES (X86)\MICROSOFT VISUAL STUDIO 12.0\VC\INCLUDE\ARRAY
C:\PROGRAM FILES (X86)\MICROSOFT VISUAL STUDIO 12.0\VC\INCLUDE\TUPLE
C:\PROGRAM FILES (X86)\MICROSOFT VISUAL STUDIO 12.0\VC\INCLUDE\VECTOR
C:\PROGRAM FILES (X86)\MICROSOFT VISUAL STUDIO 12.0\VC\INCLUDE\CHRONO
C:\PROGRAM FILES (X86)\MICROSOFT VISUAL STUDIO 12.0\VC\INCLUDE\RATIO
C:\PROGRAM FILES (X86)\MICROSOFT VISUAL STUDIO 12.0\VC\INCLUDE\TIME.H
C:\PROGRAM FILES (X86)\MICROSOFT VISUAL STUDIO 12.0\VC\INCLUDE\TIME.INL
C:\PROGRAM FILES (X86)\MICROSOFT VISUAL STUDIO 12.0\VC\INCLUDE\THR\XTIMEC.H
C:\PROGRAM FILES (X86)\MICROSOFT VISUAL STUDIO 12.0\VC\INCLUDE\THR\XTHRCOMMON.H
C:\PROGRAM FILES (X86)\MICROSOFT VISUAL STUDIO 12.0\VC\INCLUDE\MEMORY
C:\PROGRAM FILES (X86)\MICROSOFT VISUAL STUDIO 12.0\VC\INCLUDE\MAP
C:\PROGRAM FILES (X86)\MICROSOFT VISUAL STUDIO 12.0\VC\INCLUDE\XTREE
C:\PROGRAM FILES (X86)\MICROSOFT VISUAL STUDIO 12.0\VC\INCLUDE\RANDOM
C:\PROGRAM FILES (X86)\MICROSOFT VISUAL STUDIO 12.0\VC\INCLUDE\FUNCTIONAL
C:\PROGRAM FILES (X86)\MICROSOFT VISUAL STUDIO 12.0\VC\INCLUDE\XFUNCTIONAL
C:\USERS\MANOS\DESKTOP\COMPUTER-GRAPHICS\LIBENUGRAPHICS\GEOMETRY.H
C:\USERS\MANOS\DESKTOP\COMPUTER-GRAPHICS\LIBENUGRAPHICS\MESH.H
C:\USERS\MANOS\DESKTOP\COMPUTER-GRAPHICS\LIBENUGRAPHICS\TRANSFORM.H
C:\USERS\MANOS\DESKTOP\COMPUTER-GRAPHICS\LIBENUGRAPHICS\MATERIAL.H
C:\USERS\MANOS\DESKTOP\COMPUTER-GRAPHICS\LIBENUGRAPHICS\EFFECT.H
C:\USERS\MANOS\DESKTOP\COMPUTER-GRAPHICS\LIBENUGRAPHICS\TEXTURE.H
C:\USERS\MANOS\DESKTOP\COMPUTER-GRAPHICS\LIBENUGRAPHICS\DIRECTIONAL_LIGHT.H
C:\USERS\MANOS\DESKTOP\COMPUTER-GRAPHICS\LIBENUGRAPHICS\POINT_LIGHT.H
C:\USERS\MANOS\DESKTOP\COMPUTER-GRAPHICS\LIBENUGRAPHICS\SPOT_LIGHT.H
C:\USERS\MANOS\DESKTOP\COMPUTER-GRAPHICS\LIBENUGRAPHICS\APP.H
C:\USERS\MANOS\DESKTOP\COMPUTER-GRAPHICS\LIBENUGRAPHICS\GEOMETRY_BUILDER.H
C:\USERS\MANOS\DESKTOP\COMPUTER-GRAPHICS\LIBENUGRAPHICS\TERRAIN.H
C:\USERS\MANOS\DESKTOP\COMPUTER-GRAPHICS\LIBENUGRAPHICS\CUBEMAP.H
C:\USERS\MANOS\DESKTOP\COMPUTER-GRAPHICS\LIBENUGRAPHICS\FRAME_BUFFER.H
C:\USERS\MANOS\DESKTOP\COMPUTER-GRAPHICS\LIBENUGRAPHICS\DEPTH_BUFFER.H
C:\USERS\MANOS\DESKTOP\COMPUTER-GRAPHICS\LIBENUGRAPHICS\SHADOW_MAP.H
C:\USERS\MANOS\DESKTOP\COMPUTER-GRAPHICS\LIBENUGRAPHICS\CAMERA.H
C:\USERS\MANOS\DESKTOP\COMPUTER-GRAPHICS\LIBENUGRAPHICS\TARGET_CAMERA.H
C:\USERS\MANOS\DESKTOP\COMPUTER-GRAPHICS\LIBENUGRAPHICS\FREE_CAMERA.H
C:\USERS\MANOS\DESKTOP\COMPUTER-GRAPHICS\LIBENUGRAPHICS\CHASE_CAMERA.H
C:\USERS\MANOS\DESKTOP\COMPUTER-GRAPHICS\LIBENUGRAPHICS\ARC_BALL_CAMERA.H
C:\USERS\MANOS\DESKTOP\COMPUTER-GRAPHICS\LIBENUGRAPHICS\UTIL.H
