^C:\USERS\40168970\DOWNLOADS\COMPUTERGRAPHICSSET08116\COMPUTER GRAPHICS\007 RENDERING A QUAD 5\MAIN.CPP
C:\USERS\40168970\DOWNLOADS\COMPUTERGRAPHICSSET08116\COMPUTER GRAPHICS\007 RENDERING A QUAD 5\DEBUG\VC120.PDB
C:\USERS\40168970\DOWNLOADS\COMPUTERGRAPHICSSET08116\COMPUTER GRAPHICS\007 RENDERING A QUAD 5\DEBUG\VC120.IDB
C:\USERS\40168970\DOWNLOADS\COMPUTERGRAPHICSSET08116\COMPUTER GRAPHICS\007 RENDERING A QUAD 5\DEBUG\MAIN.OBJ
^C:\USERS\MANOS\DESKTOP\COMPUTER-GRAPHICS\007 RENDERING A QUAD 5\MAIN.CPP
C:\USERS\MANOS\DESKTOP\COMPUTER-GRAPHICS\007 RENDERING A QUAD 5\DEBUG\VC120.PDB
C:\USERS\MANOS\DESKTOP\COMPUTER-GRAPHICS\007 RENDERING A QUAD 5\DEBUG\VC120.IDB
C:\USERS\MANOS\DESKTOP\COMPUTER-GRAPHICS\007 RENDERING A QUAD 5\DEBUG\MAIN.OBJ
