^C:\USERS\40168970\DOWNLOADS\40168970-COMPUTER-GRAPHICS-E2F7EB8F317F\40168970-COMPUTER-GRAPHICS-E2F7EB8F317F\047 CHASE CAMERA\DEBUG\MAIN.OBJ|C:\USERS\40168970\DOWNLOADS\40168970-COMPUTER-GRAPHICS-E2F7EB8F317F\40168970-COMPUTER-GRAPHICS-E2F7EB8F317F\DEBUG\LIBENUGRAPHICS.LIB
C:\PROGRAM FILES (X86)\WINDOWS KITS\8.1\LIB\WINV6.3\UM\X86\OPENGL32.LIB
C:\PROGRAM FILES (X86)\WINDOWS KITS\8.1\LIB\WINV6.3\UM\X86\GLU32.LIB
C:\USERS\40168970\DOWNLOADS\40168970-COMPUTER-GRAPHICS-E2F7EB8F317F\40168970-COMPUTER-GRAPHICS-E2F7EB8F317F\LIB\GLEW32.LIB
C:\USERS\40168970\DOWNLOADS\40168970-COMPUTER-GRAPHICS-E2F7EB8F317F\40168970-COMPUTER-GRAPHICS-E2F7EB8F317F\LIB\GLFW3DLL.LIB
C:\USERS\40168970\DOWNLOADS\40168970-COMPUTER-GRAPHICS-E2F7EB8F317F\40168970-COMPUTER-GRAPHICS-E2F7EB8F317F\LIB\FREEIMAGE.LIB
C:\USERS\40168970\DOWNLOADS\40168970-COMPUTER-GRAPHICS-E2F7EB8F317F\40168970-COMPUTER-GRAPHICS-E2F7EB8F317F\LIB\ASSIMP.LIB
C:\PROGRAM FILES (X86)\WINDOWS KITS\8.1\LIB\WINV6.3\UM\X86\KERNEL32.LIB
C:\PROGRAM FILES (X86)\WINDOWS KITS\8.1\LIB\WINV6.3\UM\X86\USER32.LIB
C:\PROGRAM FILES (X86)\WINDOWS KITS\8.1\LIB\WINV6.3\UM\X86\GDI32.LIB
C:\PROGRAM FILES (X86)\WINDOWS KITS\8.1\LIB\WINV6.3\UM\X86\WINSPOOL.LIB
C:\PROGRAM FILES (X86)\WINDOWS KITS\8.1\LIB\WINV6.3\UM\X86\COMDLG32.LIB
C:\PROGRAM FILES (X86)\WINDOWS KITS\8.1\LIB\WINV6.3\UM\X86\ADVAPI32.LIB
C:\PROGRAM FILES (X86)\WINDOWS KITS\8.1\LIB\WINV6.3\UM\X86\SHELL32.LIB
C:\PROGRAM FILES (X86)\WINDOWS KITS\8.1\LIB\WINV6.3\UM\X86\OLE32.LIB
C:\PROGRAM FILES (X86)\WINDOWS KITS\8.1\LIB\WINV6.3\UM\X86\OLEAUT32.LIB
C:\PROGRAM FILES (X86)\WINDOWS KITS\8.1\LIB\WINV6.3\UM\X86\UUID.LIB
C:\PROGRAM FILES (X86)\WINDOWS KITS\8.1\LIB\WINV6.3\UM\X86\ODBC32.LIB
C:\PROGRAM FILES (X86)\WINDOWS KITS\8.1\LIB\WINV6.3\UM\X86\ODBCCP32.LIB
C:\USERS\40168970\DOWNLOADS\40168970-COMPUTER-GRAPHICS-E2F7EB8F317F\40168970-COMPUTER-GRAPHICS-E2F7EB8F317F\047 CHASE CAMERA\DEBUG\MAIN.OBJ
C:\USERS\40168970\DOWNLOADS\40168970-COMPUTER-GRAPHICS-E2F7EB8F317F\40168970-COMPUTER-GRAPHICS-E2F7EB8F317F\DEBUG\LIBENUGRAPHICS.LIB
C:\WINDOWS\SYSTEM32\TZRES.DLL
C:\WINDOWS\GLOBALIZATION\SORTING\SORTDEFAULT.NLS
C:\PROGRAM FILES (X86)\MICROSOFT VISUAL STUDIO 12.0\VC\LIB\MSVCPRTD.LIB
C:\PROGRAM FILES (X86)\MICROSOFT VISUAL STUDIO 12.0\VC\LIB\MSVCRTD.LIB
C:\PROGRAM FILES (X86)\MICROSOFT VISUAL STUDIO 12.0\VC\LIB\OLDNAMES.LIB
